ply
format ascii 1.0
comment Created by Blender 2.78 (sub 0) - www.blender.org, source file: 'Rock1.blend'
element vertex 88
property float x
property float y
property float z
property float nx
property float ny
property float nz
property float s
property float t
element face 22
property list uchar uint vertex_indices
end_header
-1.089700 0.814740 -0.305975 0.303117 -0.926763 0.221879 0.711219 0.909186
-1.094159 0.474729 -1.292905 0.303117 -0.926763 0.221879 0.711219 0.720872
-0.144943 0.953157 -1.018494 0.303117 -0.926763 0.221879 0.530342 0.774049
0.803620 1.322118 -0.346086 0.303117 -0.926763 0.221879 0.349932 0.903164
-1.000137 3.089618 -0.124987 -0.093972 0.911826 -0.399678 0.986621 0.681940
0.028624 2.915720 -0.415316 -0.093972 0.911826 -0.399678 0.796108 0.609105
-0.240173 2.875137 -0.792987 -0.093972 0.911826 -0.399678 0.853673 0.541951
-0.933241 2.619311 -0.865393 -0.093972 0.911826 -0.399678 0.986621 0.540091
-1.230607 1.923465 -0.209596 -0.953546 0.179459 -0.241960 0.220564 0.179664
-1.000137 3.089618 -0.124987 -0.953546 0.179459 -0.241960 0.087872 0.000321
-0.933241 2.619311 -0.865393 -0.953546 0.179459 -0.241960 0.255237 0.000545
-1.000000 1.910583 -1.000000 -0.953546 0.179459 -0.241960 0.349289 0.101048
-1.000000 1.910583 -1.000000 0.008158 0.203688 -0.979002 0.560308 0.357459
-0.933241 2.619311 -0.865393 0.008158 0.203688 -0.979002 0.424482 0.358250
-0.240173 2.875137 -0.792987 0.008158 0.203688 -0.979002 0.362744 0.231526
0.249197 1.785576 -1.029004 0.008158 0.203688 -0.979002 0.560308 0.117915
0.790789 1.894602 0.206654 0.796195 0.067343 0.601281 0.204309 0.514756
0.376138 2.957335 0.325806 0.796195 0.067343 0.601281 0.000321 0.509890
0.240571 2.839499 0.829404 0.796195 0.067343 0.601281 0.009619 0.608136
0.085346 1.930742 0.825841 0.796195 0.067343 0.601281 0.181517 0.630886
-1.000000 1.910583 1.000000 0.173274 -0.224887 0.958854 0.999679 0.539449
-0.808171 0.983945 0.765248 0.173274 -0.224887 0.958854 0.999679 0.358892
0.043602 1.242905 0.654816 0.173274 -0.224887 0.958854 0.830513 0.374331
0.085346 1.930742 0.825841 0.173274 -0.224887 0.958854 0.796108 0.501234
-0.705803 2.502126 0.790217 0.044212 0.123029 0.991418 0.772870 0.902610
-1.000000 1.910583 1.000000 0.044212 0.123029 0.991418 0.884678 0.960831
0.085346 1.930742 0.825841 0.044212 0.123029 0.991418 0.884678 0.753705
0.240571 2.839499 0.829404 0.044212 0.123029 0.991418 0.711862 0.720872
0.724375 1.240318 0.253907 0.586140 -0.121115 0.801107 0.807301 0.313107
0.790789 1.894602 0.206654 0.586140 -0.121115 0.801107 0.932627 0.319376
0.085346 1.930742 0.825841 0.586140 -0.121115 0.801107 0.932627 0.184597
0.043602 1.242905 0.654816 0.586140 -0.121115 0.801107 0.801148 0.183357
-1.094159 0.474729 -1.292905 0.093972 0.103051 -0.990227 0.795466 0.358892
-1.000000 1.910583 -1.000000 0.093972 0.103051 -0.990227 0.795466 0.633450
0.249197 1.785576 -1.029004 0.093972 0.103051 -0.990227 0.556062 0.625246
-0.144943 0.953157 -1.018494 0.093972 0.103051 -0.990227 0.620712 0.461835
-1.089700 0.814740 -0.305975 -0.991973 0.001120 -0.126441 0.182307 0.712468
-1.230607 1.923465 -0.209596 -0.991973 0.001120 -0.126441 0.182307 0.924817
-1.000000 1.910583 -1.000000 -0.991973 0.001120 -0.126441 0.032273 0.909308
-1.094159 0.474729 -1.292905 -0.991973 0.001120 -0.126441 0.000321 0.631528
-0.956861 1.168720 0.379736 -0.935227 -0.067881 0.347481 0.202617 0.361491
-0.986699 1.814069 0.166467 -0.935227 -0.067881 0.347481 0.171112 0.235690
-1.230607 1.923465 -0.209596 -0.935227 -0.067881 0.347481 0.220564 0.179664
-1.089700 0.814740 -0.305975 -0.935227 -0.067881 0.347481 0.349289 0.348547
-0.144943 0.953157 -1.018494 0.608649 -0.333055 -0.720153 0.303714 0.880940
0.249197 1.785576 -1.029004 0.608649 -0.333055 -0.720153 0.182950 0.753274
0.881927 1.919002 -0.597300 0.608649 -0.333055 -0.720153 0.202989 0.631528
0.803620 1.322118 -0.346086 0.608649 -0.333055 -0.720153 0.303714 0.686739
0.249197 1.785576 -1.029004 0.532035 0.481896 -0.696215 0.560308 0.117915
-0.240173 2.875137 -0.792987 0.532035 0.481896 -0.696215 0.362744 0.231526
0.028624 2.915720 -0.415316 0.532035 0.481896 -0.696215 0.349932 0.181264
0.881927 1.919002 -0.597300 0.532035 0.481896 -0.696215 0.522955 0.000321
-0.986699 1.814069 0.166467 -0.903530 0.086386 0.419726 0.171112 0.235690
-0.828936 3.014145 0.430590 -0.903530 0.086386 0.419726 0.006020 0.069206
-1.000137 3.089618 -0.124987 -0.903530 0.086386 0.419726 0.087872 0.000321
-1.230607 1.923465 -0.209596 -0.903530 0.086386 0.419726 0.220564 0.179664
-0.828936 3.014145 0.430590 0.100250 0.994862 -0.014126 0.689611 0.227043
0.376138 2.957335 0.325806 0.100250 0.994862 -0.014126 0.646402 0.000321
0.028624 2.915720 -0.415316 0.100250 0.994862 -0.014126 0.800506 0.025729
-1.000137 3.089618 -0.124987 0.100250 0.994862 -0.014126 0.800506 0.229689
-0.956861 1.168720 0.379736 0.165668 -0.966176 0.197631 0.424074 0.697660
-1.089700 0.814740 -0.305975 0.165668 -0.966176 0.197631 0.555420 0.720229
0.803620 1.322118 -0.346086 0.165668 -0.966176 0.197631 0.555420 0.358892
0.724375 1.240318 0.253907 0.165668 -0.966176 0.197631 0.441284 0.376434
-0.808171 0.983945 0.765248 0.114138 -0.982033 -0.150281 0.349932 0.670853
-0.956861 1.168720 0.379736 0.114138 -0.982033 -0.150281 0.424074 0.697660
0.724375 1.240318 0.253907 0.114138 -0.982033 -0.150281 0.441284 0.376434
0.043602 1.242905 0.654816 0.114138 -0.982033 -0.150281 0.367556 0.507920
-0.705803 2.502126 0.790217 -0.087144 0.805345 0.586367 0.617191 0.223069
0.240571 2.839499 0.829404 -0.087144 0.805345 0.586367 0.560950 0.051314
0.376138 2.957335 0.325806 -0.087144 0.805345 0.586367 0.646402 0.000321
-0.828936 3.014145 0.430590 -0.087144 0.805345 0.586367 0.689611 0.227043
-1.000000 1.910583 1.000000 -0.956672 0.236168 0.170306 0.026896 0.305228
-0.705803 2.502126 0.790217 -0.956672 0.236168 0.170306 0.000321 0.188456
-0.828936 3.014145 0.430590 -0.956672 0.236168 0.170306 0.006020 0.069206
-0.986699 1.814069 0.166467 -0.956672 0.236168 0.170306 0.171112 0.235690
-0.808171 0.983945 0.765248 -0.985126 -0.140270 0.099253 0.950799 0.000321
-1.000000 1.910583 1.000000 -0.985126 -0.140270 0.099253 0.950798 0.182714
-0.986699 1.814069 0.166467 -0.985126 -0.140270 0.099253 0.801148 0.125806
-0.956861 1.168720 0.379736 -0.985126 -0.140270 0.099253 0.870835 0.016434
0.803620 1.322118 -0.346086 0.989686 -0.087402 0.113497 0.326788 0.425012
0.881927 1.919002 -0.597300 0.989686 -0.087402 0.113497 0.220418 0.362134
0.790789 1.894602 0.206654 0.989686 -0.087402 0.113497 0.204309 0.514756
0.724375 1.240318 0.253907 0.989686 -0.087402 0.113497 0.326788 0.540553
0.881927 1.919002 -0.597300 0.833098 0.534002 -0.144187 0.220418 0.362134
0.028624 2.915720 -0.415316 0.833098 0.534002 -0.144187 0.027291 0.370849
0.376138 2.957335 0.325806 0.833098 0.534002 -0.144187 0.000321 0.509890
0.790789 1.894602 0.206654 0.833098 0.534002 -0.144187 0.204309 0.514756
4 0 1 2 3
4 4 5 6 7
4 8 9 10 11
4 12 13 14 15
4 16 17 18 19
4 20 21 22 23
4 24 25 26 27
4 28 29 30 31
4 32 33 34 35
4 36 37 38 39
4 40 41 42 43
4 44 45 46 47
4 48 49 50 51
4 52 53 54 55
4 56 57 58 59
4 60 61 62 63
4 64 65 66 67
4 68 69 70 71
4 72 73 74 75
4 76 77 78 79
4 80 81 82 83
4 84 85 86 87
