ply
format ascii 1.0
comment VCGLIB generated
element vertex 300
property float x
property float y
property float z
property float nx
property float ny
property float nz
property float texture_u
property float texture_v
element face 116
property list uchar int vertex_indices
end_header
0 -2.131427 0.55 -0.6180356 0 1.902112 0.747142 0.642437
0 8.356672 0.55 -0.3090178 0 0.9510562 0.747142 0.216689
-0.323282 8.356672 0.444959 -0.6180356 0 1.902112 0.727474 0.216689
-0.323282 -2.131427 0.444959 -0.3090178 0 0.9510562 0.727474 0.642437
-0.323282 -2.131427 0.444959 -1.618035 0 1.17557 0.672131 0.642437
-0.323282 8.356672 0.444959 -0.8090173 0 0.5877848 0.672131 0.216689
-0.523081 8.356672 0.169959 -1.618035 0 1.17557 0.688862 0.216689
-0.523081 -2.131427 0.169959 -0.8090173 0 0.5877848 0.688862 0.642437
-0.523081 -2.131427 0.169959 -2 0 0 0.688862 0.642437
-0.523081 8.356672 0.169959 -1 0 0 0.688862 0.216689
-0.523081 8.356672 -0.169959 -2 0 0 0.709542 0.216689
-0.523081 -2.131427 -0.169959 -1 0 0 0.709542 0.642437
-0.523081 -2.131427 -0.169959 -1.618035 0 -1.17557 0.709542 0.642437
-0.523081 8.356672 -0.169959 -0.8090173 0 -0.5877848 0.709542 0.216689
-0.323282 8.356672 -0.444959 -1.618035 0 -1.17557 0.726273 0.216689
-0.323282 -2.131427 -0.444959 -0.8090173 0 -0.5877848 0.726273 0.642437
-0.323282 -2.131427 -0.444959 -0.6180356 0 -1.902112 0.426348 0.793871
-0.323282 8.356672 -0.444959 -0.3090178 0 -0.9510562 0.000600 0.793871
0 8.356672 -0.55 -0.6180356 0 -1.902112 0.000600 0.774203
0 -2.131427 -0.55 -0.3090178 0 -0.9510562 0.426348 0.774203
0 -2.131427 -0.55 0.6180356 0 -1.902112 0.426348 0.774203
0 8.356672 -0.55 0.3090178 0 -0.9510562 0.000600 0.774203
0.323282 8.356672 -0.444959 0.6180356 0 -1.902112 0.000600 0.754535
0.323282 -2.131427 -0.444959 0.3090178 0 -0.9510562 0.426348 0.754535
0.323282 -2.131427 -0.444959 1.618035 0 -1.17557 0.670930 0.642437
0.323282 8.356672 -0.444959 0.8090173 0 -0.5877848 0.670930 0.216689
0.523081 8.356672 -0.169959 1.618035 0 -1.17557 0.654200 0.216689
0.523081 -2.131427 -0.169959 0.8090173 0 -0.5877848 0.654200 0.642437
0.523081 -2.131427 -0.169959 2 0 0 0.654200 0.642437
0.523081 8.356672 -0.169959 1 0 0 0.654200 0.216689
0.523081 8.356672 0.169959 2 0 0 0.633520 0.216689
0.523081 -2.131427 0.169959 1 0 0 0.633519 0.642437
-0.523081 8.356672 0.169959 0 4 0 0.317574 0.680242
-0.323282 8.356672 0.444959 0 1 0 0.329730 0.663511
0 8.356672 0.55 0 3 0 0.349398 0.657121
0.323282 8.356672 0.44496 0 1 0 0.369066 0.663511
0.523081 8.356672 0.169959 0 5 0 0.381221 0.680242
0.523081 8.356672 -0.169959 0 1 0 0.381221 0.700922
0.323282 8.356672 -0.444959 0 3 0 0.369066 0.717653
0 8.356672 -0.55 0 1 0 0.349398 0.724043
-0.323282 8.356672 -0.444959 0 4 0 0.329730 0.717653
-0.523081 8.356672 -0.169959 0 1 0 0.317574 0.700922
0.523081 -2.131427 0.169959 1.618037 0 1.175567 0.633519 0.642437
0.523081 8.356672 0.169959 0.8090183 0 0.5877835 0.633520 0.216689
0.323282 8.356672 0.44496 1.618037 0 1.175567 0.616789 0.216689
0.323282 -2.131427 0.44496 0.8090183 0 0.5877835 0.616789 0.642437
0 8.356672 0.55 0.6180304 0 1.902114 0.747142 0.216689
0 -2.131427 0.55 0.3090152 0 0.9510571 0.747142 0.642437
0.323282 -2.131427 0.44496 0.6180304 0 1.902114 0.766810 0.642437
0.323282 8.356672 0.44496 0.3090152 0 0.9510571 0.766810 0.216689
0.323282 -2.131427 0.44496 0 -4 0 0.221082 0.724254
0 -2.131427 0.55 0 -1 0 0.240750 0.730645
-0.323282 -2.131427 0.444959 0 -3 0 0.260418 0.724254
-0.523081 -2.131427 0.169959 0 -1 0 0.272574 0.707524
-0.523081 -2.131427 -0.169959 0 -5 0 0.272574 0.686844
-0.323282 -2.131427 -0.444959 0 -1 0 0.260418 0.670113
0 -2.131427 -0.55 0 -3 0 0.240750 0.663722
0.323282 -2.131427 -0.444959 0 -1 0 0.221082 0.670113
0.523081 -2.131427 -0.169959 0 -4 0 0.208927 0.686844
0.523081 -2.131427 0.169959 0 -1 0 0.208927 0.707524
0 8.172908 -0 -0.1023808 -0.9435232 -0.3150904 0.113574 0.108044
-1.502299 8.700418 -1.091471 -0.1023808 -0.9435232 -0.3150904 0.078664 0.215489
0.573816 8.700418 -1.766053 -0.1023808 -0.9435232 -0.3150904 0.204972 0.174448
-2.555882 10.12541 -1.856935 -0.700224 -0.661699 -0.2680312 0.481772 0.584212
-1.502299 8.700418 -1.091471 -0.700224 -0.661699 -0.2680312 0.485555 0.682550
-3.004606 9.848075 -0 -0.700224 -0.661699 -0.2680312 0.392927 0.656005
0 8.172908 -0 0.2680343 -0.9435227 -0.194737 0.113574 0.108044
0.573816 8.700418 -1.766053 0.2680343 -0.9435227 -0.194737 0.204972 0.174448
1.85695 8.700427 -0 0.2680343 -0.9435227 -0.194737 0.204972 0.041639
0 8.172908 -0 0.2680343 -0.9435227 0.194737 0.113574 0.108044
1.85695 8.700427 -0 0.2680343 -0.9435227 0.194737 0.204972 0.041639
0.573816 8.700418 1.766053 0.2680343 -0.9435227 0.194737 0.078662 0.000600
0 8.172908 -0 -0.1023808 -0.9435232 0.3150904 0.113574 0.108044
0.573816 8.700418 1.766053 -0.1023808 -0.9435232 0.3150904 0.078662 0.000600
-1.502299 8.700418 1.091471 -0.1023808 -0.9435232 0.3150904 0.000600 0.108046
-2.555882 10.12541 -1.856935 -0.9049891 -0.3303849 -0.268031 0.481772 0.584212
-3.004606 9.848075 -0 -0.9049891 -0.3303849 -0.268031 0.392927 0.656005
-3.359269 11.70505 -1.091475 -0.9049891 -0.3303849 -0.268031 0.392925 0.524960
0.976241 10.1254 -3.004611 -0.02474667 -0.3303867 -0.9435211 0.505451 0.116484
-0.928489 9.848069 -2.857541 -0.02474667 -0.3303867 -0.9435211 0.409349 0.183399
0 11.70505 -3.532139 -0.02474667 -0.3303867 -0.9435211 0.409349 0.057088
3.159238 10.12542 -0 0.8896971 -0.3303847 -0.315095 0.312922 0.082085
2.43078 9.848074 -1.766059 0.8896971 -0.3303847 -0.315095 0.206173 0.102912
3.359268 11.70505 -1.091475 0.8896971 -0.3303847 -0.315095 0.283321 0.195085
0.976241 10.1254 3.004611 0.5746019 -0.3303876 0.7487835 0.295621 0.332571
2.43078 9.848074 1.766059 0.5746019 -0.3303876 0.7487835 0.278749 0.421063
2.07614 11.70505 2.857559 0.5746019 -0.3303876 0.7487835 0.391725 0.399487
-2.555882 10.12541 1.856935 -0.5345755 -0.3303865 0.7778649 0.427549 0.820942
-0.928489 9.848069 2.857541 -0.5345755 -0.3303865 0.7778649 0.502900 0.887346
-2.07614 11.70505 2.857559 -0.5345755 -0.3303865 0.7778649 0.502900 0.754535
-2.555882 10.12541 -1.856935 -0.802609 -0.1256269 -0.5831267 0.481772 0.584212
-3.359269 11.70505 -1.091475 -0.802609 -0.1256269 -0.5831267 0.392925 0.524960
-2.07614 11.70505 -2.857559 -0.802609 -0.1256269 -0.5831267 0.485555 0.470513
0.976241 10.1254 -3.004611 0.3065693 -0.1256288 -0.9435214 0.505451 0.116484
0 11.70505 -3.532139 0.3065693 -0.1256288 -0.9435214 0.409349 0.057088
2.07614 11.70505 -2.857559 0.3065693 -0.1256288 -0.9435214 0.522324 0.000600
3.159238 10.12542 -0 0.9920774 -0.1256279 0 0.312922 0.082085
3.359268 11.70505 -1.091475 0.9920774 -0.1256279 0 0.283321 0.195085
3.359268 11.70505 1.091475 0.9920774 -0.1256279 0 0.408148 0.149739
0.976241 10.1254 3.004611 0.3065693 -0.1256288 0.9435214 0.295621 0.332571
2.07614 11.70505 2.857559 0.3065693 -0.1256288 0.9435214 0.391725 0.399487
0 11.70505 3.532139 0.3065693 -0.1256288 0.9435214 0.391725 0.273178
-2.555882 10.12541 1.856935 -0.802609 -0.1256269 0.5831267 0.193720 0.901864
-2.07614 11.70505 2.857559 -0.802609 -0.1256269 0.5831267 0.097028 0.841927
-3.359269 11.70505 1.091475 -0.802609 -0.1256269 0.5831267 0.193720 0.795072
-0.976241 13.28469 -3.004611 -0.4089463 0.6616983 -0.6284253 0.997292 0.643638
-2.43078 13.56202 -1.766059 -0.4089463 0.6616983 -0.6284253 0.997292 0.759865
-0.573816 14.70968 -1.766053 -0.4089463 0.6616983 -0.6284253 0.924048 0.673849
2.555882 13.28469 -1.856935 0.4712991 0.6616988 -0.5831224 0.630970 0.192804
0.928489 13.56203 -2.857541 0.4712991 0.6616988 -0.5831224 0.523525 0.148486
1.502299 14.70968 -1.091471 0.4712991 0.6616988 -0.5831224 0.630970 0.113574
2.555882 13.28469 1.856935 0.7002242 0.661699 0.2680309 0.955521 0.627837
3.004606 13.56202 -0 0.7002242 0.661699 0.2680309 0.955521 0.513611
1.502299 14.70968 1.091471 0.7002242 0.661699 0.2680309 0.876656 0.568973
-0.976241 13.28469 3.004611 -0.03853043 0.6616988 0.7487791 0.589363 0.927682
0.928489 13.56203 2.857541 -0.03853043 0.6616988 0.7487791 0.589363 0.810578
-0.573816 14.70968 1.766053 -0.03853043 0.6616988 0.7487791 0.507101 0.890963
-3.159238 13.28468 -0 -0.7240416 0.6616957 0.1947369 0.962301 0.326652
-2.43078 13.56202 1.766059 -0.7240416 0.6616957 0.1947369 0.962301 0.435414
-1.856951 14.70967 -0 -0.7240416 0.6616957 0.1947369 0.876656 0.340102
-1.856951 14.70967 -0 -0.2680338 0.943523 0.1947363 0.875455 0.329664
-0.573816 14.70968 1.766053 -0.2680338 0.943523 0.1947363 0.768011 0.251600
0 15.23718 -0 -0.2680338 0.943523 0.1947363 0.875455 0.216689
-1.856951 14.70967 -0 -0.4911196 0.7946572 0.3568212 0.875455 0.329664
-2.43078 13.56202 1.766059 -0.4911196 0.7946572 0.3568212 0.768011 0.364575
-0.573816 14.70968 1.766053 -0.4911196 0.7946572 0.3568212 0.768011 0.251600
-2.43078 13.56202 1.766059 -0.4089463 0.6616983 0.6284253 0.390818 0.539692
-0.976241 13.28469 3.004611 -0.4089463 0.6616983 0.6284253 0.390818 0.655920
-0.573816 14.70968 1.766053 -0.4089463 0.6616983 0.6284253 0.317574 0.625708
-0.573816 14.70968 1.766053 0.1023805 0.9435237 0.3150894 0.507102 0.625380
1.502299 14.70968 1.091471 0.1023805 0.9435237 0.3150894 0.614546 0.547317
0 15.23718 -0 0.1023805 0.9435237 0.3150894 0.614546 0.660291
-0.573816 14.70968 1.766053 0.1875941 0.7946575 0.5773455 0.507102 0.625380
0.928489 13.56203 2.857541 0.1875941 0.7946575 0.5773455 0.507101 0.512406
1.502299 14.70968 1.091471 0.1875941 0.7946575 0.5773455 0.614546 0.547317
0.928489 13.56203 2.857541 0.4712991 0.6616988 0.5831225 0.507101 0.512406
2.555882 13.28469 1.856935 0.4712991 0.6616988 0.5831225 0.614546 0.468087
1.502299 14.70968 1.091471 0.4712991 0.6616988 0.5831225 0.614546 0.547317
1.502299 14.70968 1.091471 0.3313037 0.9435242 0 0.875455 0.478750
1.502299 14.70968 -1.091471 0.3313037 0.9435242 0 0.768011 0.400688
0 15.23718 -0 0.3313037 0.9435242 0 0.875455 0.365776
1.502299 14.70968 1.091471 0.607061 0.7946553 0 0.875455 0.478750
3.004606 13.56202 -0 0.607061 0.7946553 0 0.768011 0.513662
1.502299 14.70968 -1.091471 0.607061 0.7946553 0 0.768011 0.400688
3.004606 13.56202 -0 0.7002242 0.6616991 -0.2680309 0.995744 0.114827
2.555882 13.28469 -1.856935 0.7002242 0.6616991 -0.2680309 0.995744 0.000600
1.502299 14.70968 -1.091471 0.7002242 0.6616991 -0.2680309 0.916880 0.059465
1.502299 14.70968 -1.091471 0.1023805 0.9435237 -0.3150894 0.630970 0.113574
-0.573816 14.70968 -1.766053 0.1023805 0.9435237 -0.3150894 0.523525 0.035511
0 15.23718 -0 0.1023805 0.9435237 -0.3150894 0.630970 0.000600
1.502299 14.70968 -1.091471 0.1875941 0.7946575 -0.5773455 0.630970 0.113574
0.928489 13.56203 -2.857541 0.1875941 0.7946575 -0.5773455 0.523525 0.148486
-0.573816 14.70968 -1.766053 0.1875941 0.7946575 -0.5773455 0.523525 0.035511
0.928489 13.56203 -2.857541 -0.03853043 0.6616988 -0.7487791 0.915679 0.000600
-0.976241 13.28469 -3.004611 -0.03853043 0.6616988 -0.7487791 0.915679 0.117704
-0.573816 14.70968 -1.766053 -0.03853043 0.6616988 -0.7487791 0.833417 0.080985
-0.573816 14.70968 -1.766053 -0.2680338 0.943523 -0.1947362 0.507101 0.774467
-1.856951 14.70967 -0 -0.2680338 0.943523 -0.1947362 0.614546 0.696403
0 15.23718 -0 -0.2680338 0.943523 -0.1947362 0.614546 0.809377
-0.573816 14.70968 -1.766053 -0.4911196 0.7946572 -0.3568212 0.507101 0.774467
-2.43078 13.56202 -1.766059 -0.4911196 0.7946572 -0.3568212 0.507101 0.661492
-1.856951 14.70967 -0 -0.4911196 0.7946572 -0.3568212 0.614546 0.696403
-2.43078 13.56202 -1.766059 -0.7240417 0.6616957 -0.1947369 0.962301 0.216689
-3.159238 13.28468 -0 -0.7240417 0.6616957 -0.1947369 0.962301 0.325451
-1.856951 14.70967 -0 -0.7240417 0.6616957 -0.1947369 0.876656 0.312001
-3.359269 11.70505 1.091475 -0.8896971 0.3303847 0.3150953 0.009149 0.636835
-2.43078 13.56202 1.766059 -0.8896971 0.3303847 0.3150953 0.101779 0.713435
-3.159238 13.28468 -0 -0.8896971 0.3303847 0.3150953 0.000600 0.753334
-3.359269 11.70505 1.091475 -0.7946554 0.187595 0.5773482 0.009149 0.636835
-2.07614 11.70505 2.857559 -0.7946554 0.187595 0.5773482 0.101779 0.582388
-2.43078 13.56202 1.766059 -0.7946554 0.187595 0.5773482 0.101779 0.713435
-2.07614 11.70505 2.857559 -0.5746019 0.3303872 0.7487836 0.208927 0.529711
-0.976241 13.28469 3.004611 -0.5746019 0.3303872 0.7487836 0.316373 0.483139
-2.43078 13.56202 1.766059 -0.5746019 0.3303872 0.7487836 0.249967 0.422264
0 11.70505 3.532139 0.02474656 0.3303863 0.9435213 0.632170 0.113576
0.928489 13.56203 2.857541 0.02474656 0.3303863 0.9435213 0.739617 0.047169
-0.976241 13.28469 3.004611 0.02474656 0.3303863 0.9435213 0.632171 0.000600
0 11.70505 3.532139 0.3035313 0.1875975 0.9341713 0.632170 0.113576
2.07614 11.70505 2.857559 0.3035313 0.1875975 0.9341713 0.739617 0.179980
0.928489 13.56203 2.857541 0.3035313 0.1875975 0.9341713 0.739617 0.047169
2.07614 11.70505 2.857559 0.5345755 0.330386 0.7778651 0.294560 0.895510
2.555882 13.28469 1.856935 0.5345755 0.330386 0.7778651 0.294560 0.795072
0.928489 13.56203 2.857541 0.5345755 0.330386 0.7778651 0.194921 0.807699
3.359268 11.70505 1.091475 0.9049894 0.3303841 0.2680308 0.115096 0.293290
3.004606 13.56202 -0 0.9049894 0.3303841 0.2680308 0.000600 0.357038
2.555882 13.28469 1.856935 0.9049894 0.3303841 0.2680308 0.106545 0.399739
3.359268 11.70505 1.091475 0.9822457 0.1875985 0 0.115096 0.293290
3.359268 11.70505 -1.091475 0.9822457 0.1875985 0 0.000602 0.225992
3.004606 13.56202 -0 0.9822457 0.1875985 0 0.000600 0.357038
3.359268 11.70505 -1.091475 0.9049894 0.3303841 -0.2680308 0.604135 0.336342
2.555882 13.28469 -1.856935 0.9049894 0.3303841 -0.2680308 0.520808 0.403134
3.004606 13.56202 -0 0.9049894 0.3303841 -0.2680308 0.615588 0.466887
2.07614 11.70505 -2.857559 0.5345755 0.330386 -0.7778651 0.737648 0.744075
0.928489 13.56203 -2.857541 0.5345755 0.330386 -0.7778651 0.638009 0.656264
2.555882 13.28469 -1.856935 0.5345755 0.330386 -0.7778651 0.737648 0.643638
2.07614 11.70505 -2.857559 0.3035313 0.1875975 -0.9341713 0.737648 0.744075
0 11.70505 -3.532139 0.3035313 0.1875975 -0.9341713 0.616789 0.780781
0.928489 13.56203 -2.857541 0.3035313 0.1875975 -0.9341713 0.638009 0.656264
0 11.70505 -3.532139 0.02474656 0.3303863 -0.9435213 0.505900 0.343001
-0.976241 13.28469 -3.004611 0.02474656 0.3303863 -0.9435213 0.409799 0.283605
0.928489 13.56203 -2.857541 0.02474656 0.3303863 -0.9435213 0.505900 0.216689
-2.07614 11.70505 -2.857559 -0.5746019 0.3303872 -0.7487836 0.822605 0.824218
-2.43078 13.56202 -1.766059 -0.5746019 0.3303872 -0.7487836 0.822605 0.939236
-0.976241 13.28469 -3.004611 -0.5746019 0.3303872 -0.7487836 0.738849 0.906063
-2.07614 11.70505 -2.857559 -0.7946554 0.187595 -0.5773482 0.207726 0.571886
-3.359269 11.70505 -1.091475 -0.7946554 0.187595 -0.5773482 0.115096 0.517439
-2.43078 13.56202 -1.766059 -0.7946554 0.187595 -0.5773482 0.207726 0.440839
-3.359269 11.70505 -1.091475 -0.8896971 0.3303847 -0.3150953 0.115096 0.517439
-3.159238 13.28468 -0 -0.8896971 0.3303847 -0.3150953 0.106547 0.400940
-2.43078 13.56202 -1.766059 -0.8896971 0.3303847 -0.3150953 0.207726 0.440839
-2.07614 11.70505 2.857559 -0.3065693 0.1256287 0.9435214 0.208927 0.529711
0 11.70505 3.532139 -0.3065693 0.1256287 0.9435214 0.316373 0.596114
-0.976241 13.28469 3.004611 -0.3065693 0.1256287 0.9435214 0.316373 0.483139
-2.07614 11.70505 2.857559 -0.3035312 -0.1875978 0.9341712 0.208927 0.529711
-0.928489 9.848069 2.857541 -0.3035312 -0.1875978 0.9341712 0.208928 0.662522
0 11.70505 3.532139 -0.3035312 -0.1875978 0.9341712 0.316373 0.596114
-0.928489 9.848069 2.857541 -0.02474667 -0.3303867 0.9435211 0.278748 0.216689
0.976241 10.1254 3.004611 -0.02474667 -0.3303867 0.9435211 0.295621 0.332571
0 11.70505 3.532139 -0.02474667 -0.3303867 0.9435211 0.391725 0.273178
2.07614 11.70505 2.857559 0.8026091 0.1256264 0.5831265 0.207726 0.347736
3.359268 11.70505 1.091475 0.8026091 0.1256264 0.5831265 0.115096 0.293290
2.555882 13.28469 1.856935 0.8026091 0.1256264 0.5831265 0.106545 0.399739
2.07614 11.70505 2.857559 0.7946556 -0.187595 0.5773479 0.207726 0.347736
2.43078 9.848074 1.766059 0.7946556 -0.187595 0.5773479 0.207726 0.216689
3.359268 11.70505 1.091475 0.7946556 -0.187595 0.5773479 0.115096 0.293290
2.43078 9.848074 1.766059 0.8896971 -0.3303847 0.315095 0.095827 0.795072
3.159238 10.12542 -0 0.8896971 -0.3303847 0.315095 0.000600 0.847617
3.359268 11.70505 1.091475 0.8896971 -0.3303847 0.315095 0.095827 0.915271
3.359268 11.70505 -1.091475 0.8026091 0.1256264 -0.5831265 0.604135 0.336342
2.07614 11.70505 -2.857559 0.8026091 0.1256264 -0.5831265 0.507101 0.290200
2.555882 13.28469 -1.856935 0.8026091 0.1256264 -0.5831265 0.520808 0.403134
3.359268 11.70505 -1.091475 0.7946556 -0.187595 -0.5773479 0.604135 0.336342
2.43078 9.848074 -1.766059 0.7946556 -0.187595 -0.5773479 0.615588 0.216689
2.07614 11.70505 -2.857559 0.7946556 -0.187595 -0.5773479 0.507101 0.290200
2.43078 9.848074 -1.766059 0.5746019 -0.3303876 -0.7487835 0.940353 0.118905
0.976241 10.1254 -3.004611 0.5746019 -0.3303876 -0.7487835 0.940353 0.208991
2.07614 11.70505 -2.857559 0.5746019 -0.3303876 -0.7487835 0.833417 0.161258
0 11.70505 -3.532139 -0.3065693 0.1256287 -0.9435214 0.505900 0.343001
-2.07614 11.70505 -2.857559 -0.3065693 0.1256287 -0.9435214 0.392925 0.399488
-0.976241 13.28469 -3.004611 -0.3065693 0.1256287 -0.9435214 0.409799 0.283605
0 11.70505 -3.532139 -0.3035312 -0.1875977 -0.9341712 0.505900 0.343001
-0.928489 9.848069 -2.857541 -0.3035312 -0.1875977 -0.9341712 0.505900 0.469312
-2.07614 11.70505 -2.857559 -0.3035312 -0.1875977 -0.9341712 0.392925 0.399488
-0.928489 9.848069 -2.857541 -0.5345755 -0.3303865 -0.7778649 0.395401 0.795072
-2.555882 10.12541 -1.856935 -0.5345755 -0.3303865 -0.7778649 0.395401 0.895508
-2.07614 11.70505 -2.857559 -0.5345755 -0.3303865 -0.7778649 0.295760 0.882881
-3.359269 11.70505 -1.091475 -0.9920774 0.1256282 0 0.115096 0.517439
-3.359269 11.70505 1.091475 -0.9920774 0.1256282 0 0.000602 0.450141
-3.159238 13.28468 -0 -0.9920774 0.1256282 0 0.106547 0.400940
-3.359269 11.70505 -1.091475 -0.9822456 -0.1875991 0 0.115096 0.517439
-3.004606 9.848075 -0 -0.9822456 -0.1875991 0 0.000600 0.581187
-3.359269 11.70505 1.091475 -0.9822456 -0.1875991 0 0.000602 0.450141
-3.004606 9.848075 -0 -0.9049891 -0.3303849 0.268031 0.195608 0.713434
-2.555882 10.12541 1.856935 -0.9049891 -0.3303849 0.268031 0.106762 0.641642
-3.359269 11.70505 1.091475 -0.9049891 -0.3303849 0.268031 0.195608 0.582388
-1.502299 8.700418 1.091471 -0.4712991 -0.6616988 0.5831225 0.832216 0.133409
-0.928489 9.848069 2.857541 -0.4712991 -0.6616988 0.5831225 0.740817 0.067005
-2.555882 10.12541 1.856935 -0.4712991 -0.6616988 0.5831225 0.768118 0.179979
-1.502299 8.700418 1.091471 -0.1875941 -0.7946575 0.5773455 0.832216 0.133409
0.573816 8.700418 1.766053 -0.1875941 -0.7946575 0.5773455 0.832216 0.000600
-0.928489 9.848069 2.857541 -0.1875941 -0.7946575 0.5773455 0.740817 0.067005
0.573816 8.700418 1.766053 0.03853016 -0.661699 0.7487789 0.208927 0.308088
0.976241 10.1254 3.004611 0.03853016 -0.661699 0.7487789 0.295621 0.332571
-0.928489 9.848069 2.857541 0.03853016 -0.661699 0.7487789 0.278748 0.216689
0.573816 8.700418 1.766053 0.4089461 -0.6616985 0.6284251 0.830247 0.776447
2.43078 9.848074 1.766059 0.4089461 -0.6616985 0.6284251 0.738849 0.710041
0.976241 10.1254 3.004611 0.4089461 -0.6616985 0.6284251 0.766149 0.823017
0.573816 8.700418 1.766053 0.4911194 -0.7946575 0.3568212 0.830247 0.776447
1.85695 8.700427 -0 0.4911194 -0.7946575 0.3568212 0.830247 0.643638
2.43078 9.848074 1.766059 0.4911194 -0.7946575 0.3568212 0.738849 0.710041
1.85695 8.700427 -0 0.7240419 -0.6616955 0.1947363 0.283321 0.000600
3.159238 10.12542 -0 0.7240419 -0.6616955 0.1947363 0.312922 0.082085
2.43078 9.848074 1.766059 0.7240419 -0.6616955 0.1947363 0.408148 0.029540
1.85695 8.700427 -0 0.7240419 -0.6616955 -0.1947363 0.283321 0.000600
2.43078 9.848074 -1.766059 0.7240419 -0.6616955 -0.1947363 0.206173 0.102912
3.159238 10.12542 -0 0.7240419 -0.6616955 -0.1947363 0.312922 0.082085
1.85695 8.700427 -0 0.4911194 -0.7946575 -0.3568212 0.708188 0.914791
0.573816 8.700418 -1.766053 0.4911194 -0.7946575 -0.3568212 0.708188 0.781981
2.43078 9.848074 -1.766059 0.4911194 -0.7946575 -0.3568212 0.616789 0.848387
0.573816 8.700418 -1.766053 0.4089461 -0.6616985 -0.6284251 0.317574 0.508280
0.976241 10.1254 -3.004611 0.4089461 -0.6616985 -0.6284251 0.390818 0.538492
2.43078 9.848074 -1.766059 0.4089461 -0.6616985 -0.6284251 0.390818 0.422264
-3.004606 9.848075 -0 -0.700224 -0.6616991 0.2680312 0.195608 0.713434
-1.502299 8.700418 1.091471 -0.700224 -0.6616991 0.2680312 0.102980 0.739980
-2.555882 10.12541 1.856935 -0.700224 -0.6616991 0.2680312 0.106762 0.641642
-3.004606 9.848075 -0 -0.6070606 -0.7946554 0 0.831448 0.710041
-1.502299 8.700418 -1.091471 -0.6070606 -0.7946554 0 0.922847 0.776445
-1.502299 8.700418 1.091471 -0.6070606 -0.7946554 0 0.922847 0.643638
-1.502299 8.700418 -1.091471 -0.3313048 -0.9435238 0 0.922846 0.777646
0 8.172908 -0 -0.3313048 -0.9435238 0 0.831448 0.844050
-1.502299 8.700418 1.091471 -0.3313048 -0.9435238 0 0.922846 0.910453
0.573816 8.700418 -1.766053 0.03853016 -0.661699 -0.7487789 0.522324 0.204975
-0.928489 9.848069 -2.857541 0.03853016 -0.661699 -0.7487789 0.409349 0.183399
0.976241 10.1254 -3.004611 0.03853016 -0.661699 -0.7487789 0.505451 0.116484
0.573816 8.700418 -1.766053 -0.1875941 -0.7946575 -0.5773455 0.768011 0.549775
-1.502299 8.700418 -1.091471 -0.1875941 -0.7946575 -0.5773455 0.875455 0.627837
-0.928489 9.848069 -2.857541 -0.1875941 -0.7946575 -0.5773455 0.875455 0.514863
-1.502299 8.700418 -1.091471 -0.4712991 -0.6616988 -0.5831225 0.999400 0.761066
-2.555882 10.12541 -1.856935 -0.4712991 -0.6616988 -0.5831225 0.924048 0.785550
-0.928489 9.848069 -2.857541 -0.4712991 -0.6616988 -0.5831225 0.999400 0.874040
3 0 1 2 
3 0 2 3 
3 4 5 6 
3 4 6 7 
3 8 9 10 
3 8 10 11 
3 12 13 14 
3 12 14 15 
3 16 17 18 
3 16 18 19 
3 20 21 22 
3 20 22 23 
3 24 25 26 
3 24 26 27 
3 28 29 30 
3 28 30 31 
3 32 33 34 
3 34 35 36 
3 36 37 38 
3 38 39 40 
3 40 41 32 
3 32 34 36 
3 36 38 40 
3 36 40 32 
3 42 43 44 
3 42 44 45 
3 46 47 48 
3 46 48 49 
3 50 51 52 
3 52 53 54 
3 54 55 56 
3 56 57 58 
3 58 59 50 
3 50 52 54 
3 54 56 58 
3 54 58 50 
3 60 61 62 
3 63 64 65 
3 66 67 68 
3 69 70 71 
3 72 73 74 
3 75 76 77 
3 78 79 80 
3 81 82 83 
3 84 85 86 
3 87 88 89 
3 90 91 92 
3 93 94 95 
3 96 97 98 
3 99 100 101 
3 102 103 104 
3 105 106 107 
3 108 109 110 
3 111 112 113 
3 114 115 116 
3 117 118 119 
3 120 121 122 
3 123 124 125 
3 126 127 128 
3 129 130 131 
3 132 133 134 
3 135 136 137 
3 138 139 140 
3 141 142 143 
3 144 145 146 
3 147 148 149 
3 150 151 152 
3 153 154 155 
3 156 157 158 
3 159 160 161 
3 162 163 164 
3 165 166 167 
3 168 169 170 
3 171 172 173 
3 174 175 176 
3 177 178 179 
3 180 181 182 
3 183 184 185 
3 186 187 188 
3 189 190 191 
3 192 193 194 
3 195 196 197 
3 198 199 200 
3 201 202 203 
3 204 205 206 
3 207 208 209 
3 210 211 212 
3 213 214 215 
3 216 217 218 
3 219 220 221 
3 222 223 224 
3 225 226 227 
3 228 229 230 
3 231 232 233 
3 234 235 236 
3 237 238 239 
3 240 241 242 
3 243 244 245 
3 246 247 248 
3 249 250 251 
3 252 253 254 
3 255 256 257 
3 258 259 260 
3 261 262 263 
3 264 265 266 
3 267 268 269 
3 270 271 272 
3 273 274 275 
3 276 277 278 
3 279 280 281 
3 282 283 284 
3 285 286 287 
3 288 289 290 
3 291 292 293 
3 294 295 296 
3 297 298 299 
