ply
format ascii 1.0
comment VCGLIB generated
element vertex 114
property float x
property float y
property float z
property float nx
property float ny
property float nz
property float texture_u
property float texture_v
element face 60
property list uchar int vertex_indices
end_header
0.2499999 0.92388 -0.382683 0.9999999 8.742276e-08 -4.371138e-08 0.489886 0.249567
0.2499999 0.9999999 -2.175599e-07 0.9999999 8.742276e-08 -4.371138e-08 0.508858 0.344945
0.2499999 0.9238791 0.3826838 0.9999999 8.742276e-08 -4.371138e-08 0.562885 0.425803
-0.25 0.7071071 0.7071066 -0.9999999 -8.742276e-08 4.371138e-08 0.293401 0.000331
-0.25 0.9238791 0.3826838 -0.9999999 -8.742276e-08 4.371138e-08 0.383246 0.037545
-0.25 0.9999999 -1.957042e-07 -0.9999999 -8.742276e-08 4.371138e-08 0.452010 0.106310
-0.25 0.9999999 -1.957042e-07 -7.721526e-08 0.9807851 0.1950909 0.791401 0.624743
0.2499999 0.9238791 0.3826838 -7.721526e-08 0.9807851 0.1950909 0.696023 0.749361
0.2499999 0.9999999 -2.175599e-07 -7.721526e-08 0.9807851 0.1950909 0.791401 0.749361
0.2499999 0.7071071 0.7071066 0.9999999 8.742276e-08 -4.371138e-08 0.643743 0.479831
-0.25 0.3826829 -0.923879 -8.491417e-08 0.5555702 -0.8314694 0.696023 0.499464
-0.2500001 0.7071069 -0.7071061 -8.491417e-08 0.5555702 -0.8314694 0.615165 0.499464
0.2499999 0.7071069 -0.7071061 -8.491417e-08 0.5555702 -0.8314694 0.615165 0.624082
-0.25 0.9238791 0.3826838 -4.840467e-08 0.8314698 0.5555697 0.696023 0.624743
0.2499999 0.7071071 0.7071066 -4.840467e-08 0.8314698 0.5555697 0.615165 0.749361
0.2499999 0.9238791 0.3826838 -4.840467e-08 0.8314698 0.5555697 0.696023 0.749361
-0.2500001 0.7071069 -0.7071061 -9.697413e-08 0.8314698 -0.5555699 0.696023 0.750022
-0.2500001 0.92388 -0.382683 -9.697413e-08 0.8314698 -0.5555699 0.615165 0.750022
0.2499999 0.92388 -0.382683 -9.697413e-08 0.8314698 -0.5555699 0.615165 0.874640
-0.25 -1.092785e-07 -0.9999999 -5.992679e-08 0.19509 -0.9807853 0.791401 0.499464
-0.25 0.3826829 -0.923879 -5.992679e-08 0.19509 -0.9807853 0.696023 0.499464
0.2499999 0.3826829 -0.923879 -5.992679e-08 0.19509 -0.9807853 0.696023 0.624082
-0.25 0.7071071 0.7071066 -1.222477e-08 0.55557 0.8314698 0.250228 0.646535
0.25 0.3826831 0.9238797 -1.222477e-08 0.55557 0.8314698 0.374846 0.565677
0.2499999 0.7071071 0.7071066 -1.222477e-08 0.55557 0.8314698 0.374846 0.646535
-0.2500001 0.7071069 -0.7071061 -0.9999999 -8.742276e-08 4.371138e-08 0.489224 0.293401
-0.2499999 -0.7071068 0.7071068 -0.9999999 -8.742276e-08 4.371138e-08 0.000331 0.196154
-0.25 -0.382684 -0.923879 -2.581616e-08 -0.1950901 -0.9807853 0.886780 0.499464
-0.25 -1.092785e-07 -0.9999999 -2.581616e-08 -0.1950901 -0.9807853 0.791401 0.499464
0.2499999 -6.556709e-08 -0.9999999 -2.581616e-08 -0.1950901 -0.9807853 0.791401 0.624082
-0.25 0.3826831 0.9238797 2.581616e-08 0.1950901 0.9807853 0.250228 0.565677
0.25 1.092785e-07 0.9999999 2.581616e-08 0.1950901 0.9807853 0.374846 0.470299
0.25 0.3826831 0.9238797 2.581616e-08 0.1950901 0.9807853 0.374846 0.565677
-0.2499999 -0.7071068 0.7071068 -0.9999999 -8.742276e-08 4.371138e-08 0.448507 0.999669
-0.25 0.3826831 0.9238797 -0.9999999 -8.742276e-08 4.371138e-08 0.394479 0.728054
-0.25 0.7071071 0.7071066 -0.9999999 -8.742276e-08 4.371138e-08 0.448507 0.647197
-0.2499999 -0.707107 -0.7071059 1.222477e-08 -0.55557 -0.8314698 0.777542 0.750022
-0.25 -0.382684 -0.923879 1.222477e-08 -0.55557 -0.8314698 0.696684 0.750022
0.25 -0.382684 -0.923879 1.222477e-08 -0.55557 -0.8314698 0.696684 0.874640
-0.2499999 6.556709e-08 0.9999999 5.992679e-08 -0.19509 0.9807853 0.250228 0.470299
0.25 -0.3826839 0.9238797 5.992679e-08 -0.19509 0.9807853 0.374846 0.374920
0.25 1.092785e-07 0.9999999 5.992679e-08 -0.19509 0.9807853 0.374846 0.470299
-0.2499999 -0.9238799 -0.3826829 -0.9999999 -8.742276e-08 4.371138e-08 0.449168 0.571660
-0.2499999 -0.9999999 -2.085867e-08 -0.9999999 -8.742276e-08 4.371138e-08 0.486383 0.661504
-0.2499999 -0.7071068 0.7071068 -0.9999999 -8.742276e-08 4.371138e-08 0.449168 0.848596
-0.2499999 -0.9238799 -0.3826829 4.840467e-08 -0.8314698 -0.5555697 0.489886 0.580322
-0.2499999 -0.707107 -0.7071059 4.840467e-08 -0.8314698 -0.5555697 0.489886 0.499464
0.25 -0.707107 -0.7071059 4.840467e-08 -0.8314698 -0.5555697 0.614504 0.499464
-0.2499999 -0.3826839 0.9238797 8.491417e-08 -0.5555702 0.8314694 0.250228 0.374920
0.2500001 -0.7071068 0.7071068 8.491417e-08 -0.5555702 0.8314694 0.374846 0.294062
0.25 -0.3826839 0.9238797 8.491417e-08 -0.5555702 0.8314694 0.374846 0.374920
-0.2500001 0.7071069 -0.7071061 -0.9999999 -8.742276e-08 4.371138e-08 0.448507 0.646535
-0.25 -1.092785e-07 -0.9999999 -0.9999999 -8.742276e-08 4.371138e-08 0.375507 0.470299
-0.2499999 -0.707107 -0.7071059 -0.9999999 -8.742276e-08 4.371138e-08 0.448507 0.294062
-0.2499999 -0.9999999 -2.085867e-08 7.721532e-08 -0.9807853 -0.19509 0.489886 0.675700
-0.2499999 -0.9238799 -0.3826829 7.721532e-08 -0.9807853 -0.19509 0.489886 0.580322
0.25 -0.9238799 -0.3826829 7.721532e-08 -0.9807853 -0.19509 0.614504 0.580322
-0.2499999 -0.7071068 0.7071068 9.697413e-08 -0.8314698 0.5555699 0.489886 0.851937
0.2500001 -0.9238799 0.3826839 9.697413e-08 -0.8314698 0.5555699 0.614504 0.771079
0.2500001 -0.7071068 0.7071068 9.697413e-08 -0.8314698 0.5555699 0.614504 0.851937
-0.2499999 -0.9238799 0.3826839 9.427063e-08 -0.9807853 0.1950901 0.489886 0.771079
-0.2499999 -0.9999999 -2.085867e-08 9.427063e-08 -0.9807853 0.1950901 0.489886 0.675700
0.25 -0.9999999 -4.271437e-08 9.427063e-08 -0.9807853 0.1950901 0.614504 0.675700
0.2500001 -0.9238799 0.3826839 9.427063e-08 -0.9807853 0.1950901 0.614504 0.771079
-0.2499999 6.556709e-08 0.9999999 -0.9999999 -8.742276e-08 4.371138e-08 0.449168 0.383907
-0.25 0.3826831 0.9238797 -0.9999999 -8.742276e-08 4.371138e-08 0.486383 0.294062
-0.2499999 -0.7071068 0.7071068 -0.9999999 -8.742276e-08 4.371138e-08 0.486383 0.570998
-0.2499999 -0.9238799 0.3826839 9.697413e-08 -0.8314698 0.5555699 0.489886 0.771079
0.25 -0.9999999 -4.271437e-08 7.721532e-08 -0.9807853 -0.19509 0.614504 0.675700
-0.2499999 -0.7071068 0.7071068 -0.9999999 -8.742276e-08 4.371138e-08 0.342861 0.837953
-0.2499999 -0.3826839 0.9238797 -0.9999999 -8.742276e-08 4.371138e-08 0.323889 0.742575
-0.2499999 6.556709e-08 0.9999999 -0.9999999 -8.742276e-08 4.371138e-08 0.342861 0.647196
-0.2499999 -0.7071068 0.7071068 8.491417e-08 -0.5555702 0.8314694 0.250228 0.294062
0.25 -0.9238799 -0.3826829 4.840467e-08 -0.8314698 -0.5555697 0.614504 0.580322
-0.2499999 -0.9238799 0.3826839 -0.9999999 -8.742276e-08 4.371138e-08 0.486383 0.758751
-0.2499999 -0.3826839 0.9238797 5.992679e-08 -0.19509 0.9807853 0.250228 0.374920
0.25 -0.707107 -0.7071059 1.222477e-08 -0.55557 -0.8314698 0.777542 0.874640
-0.2499999 -0.707107 -0.7071059 -0.9999999 -8.742276e-08 4.371138e-08 0.000331 0.543298
-0.2499999 -0.9238799 -0.3826829 -0.9999999 -8.742276e-08 4.371138e-08 0.019303 0.447920
-0.2499999 -0.7071068 0.7071068 -0.9999999 -8.742276e-08 4.371138e-08 0.249567 0.294062
-0.2499999 6.556709e-08 0.9999999 2.581616e-08 0.1950901 0.9807853 0.250228 0.470299
0.25 -0.382684 -0.923879 -2.581616e-08 -0.1950901 -0.9807853 0.886780 0.624082
-0.25 -0.382684 -0.923879 -0.9999999 -8.742276e-08 4.371138e-08 0.394479 0.374920
-0.25 0.3826831 0.9238797 -1.222477e-08 0.55557 0.8314698 0.250228 0.565677
0.2499999 -6.556709e-08 -0.9999999 -5.992679e-08 0.19509 -0.9807853 0.791401 0.624082
-0.25 0.3826829 -0.923879 -0.9999999 -8.742276e-08 4.371138e-08 0.394479 0.565677
-0.25 0.7071071 0.7071066 -4.840467e-08 0.8314698 0.5555697 0.615165 0.624743
0.2499999 0.3826829 -0.923879 -8.491417e-08 0.5555702 -0.8314694 0.696023 0.624082
-0.2500001 0.7071069 -0.7071061 -0.9999999 -8.742276e-08 4.371138e-08 0.249567 0.792534
-0.25 0.9238791 0.3826838 -7.721526e-08 0.9807851 0.1950909 0.696023 0.624743
0.2499999 0.7071069 -0.7071061 -9.697413e-08 0.8314698 -0.5555699 0.696023 0.874640
-0.2500001 0.92388 -0.382683 -9.427063e-08 0.9807853 -0.1950901 0.886780 0.624743
-0.25 0.9999999 -1.957042e-07 -9.427063e-08 0.9807853 -0.1950901 0.791401 0.624743
0.2499999 0.9999999 -2.175599e-07 -9.427063e-08 0.9807853 -0.1950901 0.791401 0.749361
-0.2500001 0.92388 -0.382683 -0.9999999 -8.742276e-08 4.371138e-08 0.489224 0.196154
0.2499999 0.92388 -0.382683 -9.427063e-08 0.9807853 -0.1950901 0.886780 0.749361
0.2500001 -0.9238799 0.3826839 0.9999999 8.742276e-08 -4.371138e-08 0.739783 0.249567
0.25 -0.382684 -0.923879 0.9999999 8.742276e-08 -4.371138e-08 0.989019 0.498803
0.25 0.3826831 0.9238797 0.9999999 8.742276e-08 -4.371138e-08 0.989019 0.000331
0.25 0.3826831 0.9238797 0.9999999 8.742276e-08 -4.371138e-08 0.323227 0.647196
0.25 1.092785e-07 0.9999999 0.9999999 8.742276e-08 -4.371138e-08 0.269200 0.728054
0.25 -0.3826839 0.9238797 0.9999999 8.742276e-08 -4.371138e-08 0.250228 0.823433
0.2500001 -0.7071068 0.7071068 0.9999999 8.742276e-08 -4.371138e-08 0.269200 0.918811
0.25 -0.9999999 -4.271437e-08 0.9999999 8.742276e-08 -4.371138e-08 0.758755 0.344945
0.25 -0.9238799 -0.3826829 0.9999999 8.742276e-08 -4.371138e-08 0.812782 0.425803
0.25 -0.707107 -0.7071059 0.9999999 8.742276e-08 -4.371138e-08 0.893640 0.479831
0.25 -0.382684 -0.923879 0.9999999 8.742276e-08 -4.371138e-08 0.960441 0.499464
0.2499999 -6.556709e-08 -0.9999999 0.9999999 8.742276e-08 -4.371138e-08 0.906413 0.580322
0.2499999 0.3826829 -0.923879 0.9999999 8.742276e-08 -4.371138e-08 0.887441 0.675700
0.2499999 0.7071069 -0.7071061 0.9999999 8.742276e-08 -4.371138e-08 0.906413 0.771079
0.2499999 0.92388 -0.382683 0.9999999 8.742276e-08 -4.371138e-08 0.960441 0.851937
0.25 0.3826831 0.9238797 0.9999999 8.742276e-08 -4.371138e-08 0.739122 0.498803
0.2500001 -0.9238799 0.3826839 0.9999999 8.742276e-08 -4.371138e-08 0.323227 0.999669
0.25 -0.382684 -0.923879 0.9999999 8.742276e-08 -4.371138e-08 0.739122 0.000331
3 0 1 2 
3 3 4 5 
3 6 7 8 
3 2 9 0 
3 10 11 12 
3 13 14 15 
3 16 17 18 
3 19 20 21 
3 22 23 24 
3 3 25 26 
3 27 28 29 
3 30 31 32 
3 33 34 35 
3 36 37 38 
3 39 40 41 
3 42 43 44 
3 45 46 47 
3 48 49 50 
3 51 52 53 
3 54 55 56 
3 57 58 59 
3 3 5 25 
3 60 61 62 
3 60 62 63 
3 64 65 66 
3 57 67 58 
3 54 56 68 
3 69 70 71 
3 48 72 49 
3 45 47 73 
3 43 74 44 
3 39 75 40 
3 36 38 76 
3 77 78 79 
3 30 80 31 
3 27 29 81 
3 52 82 53 
3 22 83 23 
3 19 21 84 
3 51 85 52 
3 13 86 14 
3 10 12 87 
3 77 79 88 
3 6 89 7 
3 16 18 90 
3 91 92 93 
3 5 94 25 
3 91 93 95 
3 96 97 98 
3 99 100 101 
3 101 102 99 
3 96 103 97 
3 104 105 97 
3 106 107 108 
3 108 109 110 
3 0 9 111 
3 99 102 112 
3 103 104 97 
3 106 108 110 
3 0 111 113 
