ply
format ascii 1.0
comment VCGLIB generated
element vertex 16
property float x
property float y
property float z
property float nx
property float ny
property float nz
property float texture_u
property float texture_v
element face 18
property list uchar int vertex_indices
end_header
0 4.686301 -13.57632 5.595058e-06 0 64 0.000000 2.000000
-5.333333 4.686301 -13.57632 5.595058e-06 0 64 -0.666667 2.000000
-10.66667 4.686301 -13.57632 5.595058e-06 0 64 -1.333333 2.000000
-16 4.686301 -13.57632 5.595058e-06 0 64 -2.000000 2.000000
0 10.01963 -13.57632 5.595058e-06 0 64 0.000000 2.666667
-5.333333 10.01963 -13.57632 5.595058e-06 0 64 -0.666667 2.666667
-10.66667 10.01963 -13.57632 5.595058e-06 0 64 -1.333333 2.666667
-16 10.01963 -13.57632 5.595058e-06 0 64 -2.000000 2.666667
0 15.35297 -13.57632 5.595058e-06 0 64 0.000000 3.333333
-5.333333 15.35297 -13.57632 5.595058e-06 0 64 -0.666667 3.333333
-10.66667 15.35297 -13.57632 5.595058e-06 0 64 -1.333333 3.333333
-16 15.35297 -13.57632 5.595058e-06 0 64 -2.000000 3.333333
0 20.6863 -13.57632 5.595058e-06 0 64 0.000000 4.000000
-5.333333 20.6863 -13.57632 5.595058e-06 0 64 -0.666667 4.000000
-10.66667 20.6863 -13.57632 5.595058e-06 0 64 -1.333333 4.000000
-16 20.6863 -13.57632 5.595058e-06 0 64 -2.000000 4.000000
3 5 1 0 
3 0 4 5 
3 6 2 1 
3 1 5 6 
3 7 3 2 
3 2 6 7 
3 9 5 4 
3 4 8 9 
3 10 6 5 
3 5 9 10 
3 11 7 6 
3 6 10 11 
3 13 9 8 
3 8 12 13 
3 14 10 9 
3 9 13 14 
3 15 11 10 
3 10 14 15 
