ply
format ascii 1.0
comment VCGLIB generated
element vertex 719
property float x
property float y
property float z
property float nx
property float ny
property float nz
property float texture_u
property float texture_v
element face 316
property list uchar int vertex_indices
end_header
-0.104671 1.804092 0.903438 -0.34202 0 0.939693 0.242971 0.456929
-0.747459 -0.195908 0.669482 -0.34202 0 0.939693 0.177671 0.660105
-0.104671 -0.195908 0.903438 -0.34202 0 0.939693 0.242971 0.660105
-0.747459 1.804092 0.669482 -0.866025 0 0.5 0.439173 0.541293
-1.089479 -0.195908 0.077086 -0.866025 0 0.5 0.499353 0.744470
-0.747459 -0.195908 0.669482 -0.866025 0 0.5 0.439173 0.744470
-1.089479 1.804092 0.077086 -0.984808 0 -0.173648 0.499353 0.541293
-0.970697 -0.195908 -0.596562 -0.984808 0 -0.173648 0.567788 0.744470
-1.089479 -0.195908 0.077086 -0.984808 0 -0.173648 0.499353 0.744470
-0.970697 1.804092 -0.596562 -0.642788 0 -0.766044 0.000572 0.456929
-0.446691 -0.195908 -1.036255 -0.642788 0 -0.766044 0.053804 0.660105
-0.970697 -0.195908 -0.596562 -0.642788 0 -0.766044 0.000572 0.660105
-0.446691 1.804092 -1.036255 0 0 -1 0.053804 0.456929
0.237349 -0.195908 -1.036255 0 0 -1 0.123295 0.660105
-0.446691 -0.195908 -1.036255 0 0 -1 0.053804 0.660105
0.237349 1.804092 -1.036255 0.642788 0 -0.766044 0.123295 0.456929
0.761354 -0.195908 -0.596562 0.642788 0 -0.766044 0.176528 0.660105
0.237349 -0.195908 -1.036255 0.642788 0 -0.766044 0.123295 0.660105
0.761354 1.804092 -0.596562 0.984808 0 -0.173648 0.438029 0.456929
0.880137 -0.195908 0.077086 0.984808 0 -0.173648 0.369594 0.660105
0.761354 -0.195908 -0.596562 0.984808 0 -0.173648 0.438029 0.660105
0.799438 3.156037 -0.380574 0.984808 0 -0.173648 0.416087 0.319587
0.880137 1.804092 0.077086 0.984808 0 -0.173648 0.369594 0.456929
0.880137 1.804092 0.077086 0.866025 0 0.5 0.369594 0.456929
0.538117 -0.195908 0.669482 0.866025 0 0.5 0.309414 0.660105
0.880137 -0.195908 0.077086 0.866025 0 0.5 0.369594 0.660105
0.538117 1.804092 0.669482 0.34202 0 0.939693 0.308270 0.456929
-0.104671 -0.195908 0.903438 0.34202 0 0.939693 0.242971 0.660105
0.538117 -0.195908 0.669482 0.34202 0 0.939693 0.308270 0.660105
-0.747459 -0.195908 0.669482 -0 -1 0 0.568931 0.670920
0.237349 -0.195908 -1.036255 -0 -1 0 0.742214 0.770965
0.538117 -0.195908 0.669482 -0 -1 0 0.682034 0.605620
-0.747459 6.296317 0.669482 -0.338886 0.13506 0.931083 0.340389 0.974842
-0.104671 6.711923 0.843151 -0.338886 0.13506 0.931083 0.298169 0.909543
-0.708707 6.711923 0.6233 -0.338886 0.13506 0.931083 0.298169 0.970906
0.237349 6.296317 -1.036255 0.642788 0 -0.766044 0.561896 0.078482
0.761354 4.122471 -0.596562 0.642788 0 -0.766044 0.615128 0.299319
0.622124 3.656648 -0.713391 0.642788 0 -0.766044 0.600984 0.346641
0.237349 6.296317 -1.036255 0 -0 -1 0.123295 0.000572
0.237349 1.804092 -1.036255 0 -0 -1 0.123295 0.456929
-0.970697 4.960829 -0.596562 -0.642788 0 -0.766044 0.817436 0.750525
-0.970696 6.296317 -0.596562 -0.642788 0 -0.766044 0.781662 0.619657
-0.446691 6.296317 -1.036255 -0.642788 0 -0.766044 0.833010 0.605620
-0.747459 6.296317 0.669482 -0.34202 0 0.939693 0.177671 0.000572
-0.747459 1.804092 0.669482 -0.34202 0 0.939693 0.177671 0.456929
-1.089479 1.804092 0.077086 -0.984808 -1e-06 -0.173648 0.499353 0.541293
-1.022124 3.628555 -0.30491 -0.984808 -1e-06 -0.173648 0.538159 0.355950
-0.970697 1.804092 -0.596562 -0.984808 -1e-06 -0.173648 0.567788 0.541293
-0.747459 1.804092 0.669482 -0.866027 0 0.499997 0.945828 0.187759
-0.747459 6.296317 0.669482 -0.866027 0 0.499997 0.945828 0.644116
-0.855896 4.526961 0.481663 -0.866027 0 0.499997 0.926748 0.464370
-0.104671 6.296317 0.903438 0.34202 -0 0.939693 0.242971 0.000572
-0.104671 1.804092 0.903438 0.34202 -0 0.939693 0.242971 0.456929
0.693226 3.490274 0.400825 0.866025 -0 0.500001 0.925604 0.187759
0.762823 4.353001 0.28028 0.866025 -0 0.500001 0.905061 0.273836
0.538117 6.296317 0.669482 0.866025 -0 0.500001 0.925604 0.474123
0.709145 6.711923 -0.566419 0.832555 0.534136 -0.146802 0.225646 0.786801
0.588142 7.06324 0.025599 0.832555 0.534136 -0.146802 0.261335 0.726659
0.820766 6.711923 0.066617 0.832555 0.534136 -0.146802 0.225646 0.722492
0.880137 6.296317 0.077086 0.858091 0.13506 0.495419 0.183425 0.721429
0.499365 6.711923 0.6233 0.858091 0.13506 0.495419 0.225646 0.665940
0.538117 6.296317 0.669482 0.858091 0.13506 0.495419 0.183425 0.661249
-0.446691 6.296317 -1.036255 0 0.13506 -0.990837 0.492405 0.078482
0.21673 6.711923 -0.979604 0 0.13506 -0.990837 0.559801 0.036261
0.237349 6.296317 -1.036255 0 0.13506 -0.990837 0.561896 0.078482
-1.089479 6.296317 0.077086 -0.85809 0.13506 0.495419 0.628954 0.428175
-0.708707 6.711923 0.6233 -0.85809 0.13506 0.495419 0.576665 0.382051
-1.030108 6.711923 0.066617 -0.85809 0.13506 0.495419 0.633069 0.386142
0.538117 6.296317 0.669482 0.338886 0.13506 0.931083 0.340389 0.844243
-0.104671 6.711923 0.843151 0.338886 0.13506 0.931083 0.298169 0.909543
-0.104671 6.296317 0.903438 0.338886 0.13506 0.931083 0.340389 0.909543
0.761354 6.296317 -0.596562 0.636898 0.13506 -0.759025 0.615128 0.078482
0.21673 6.711923 -0.979604 0.636898 0.13506 -0.759025 0.559801 0.036261
0.709145 6.711923 -0.566419 0.636898 0.13506 -0.759025 0.609825 0.036261
-1.089479 6.296317 0.077086 -0.975784 0.13506 -0.172057 0.628954 0.428175
-0.918487 6.711923 -0.566419 -0.975784 0.13506 -0.172057 0.697209 0.390794
-0.970696 6.296317 -0.596562 -0.975784 0.13506 -0.172057 0.697209 0.433126
0.761354 6.296317 -0.596562 0.975784 0.13506 -0.172057 0.183425 0.789864
0.820766 6.711923 0.066617 0.975784 0.13506 -0.172057 0.225646 0.722492
0.880137 6.296317 0.077086 0.975784 0.13506 -0.172057 0.183425 0.721429
-0.446691 6.296317 -1.036255 -0.636898 0.13506 -0.759026 0.492405 0.078482
-0.918487 6.711923 -0.566419 -0.636898 0.13506 -0.759026 0.444476 0.036261
-0.426072 6.711923 -0.979604 -0.636898 0.13506 -0.759026 0.494500 0.036261
0.347531 7.06324 0.442351 0.188291 0.834818 0.517326 0.445883 0.770057
-0.104671 7.298377 0.227493 0.188291 0.834818 0.517326 0.467710 0.815995
-0.104671 7.06324 0.606939 0.188291 0.834818 0.517326 0.429163 0.815995
-0.918487 6.711923 -0.566419 -0.543411 0.534136 -0.647613 0.444476 0.036261
-0.345282 7.06324 -0.757637 -0.543411 0.534136 -0.647613 0.502707 0.000572
-0.426072 6.711923 -0.979604 -0.543411 0.534136 -0.647613 0.494500 0.036261
-0.104671 6.711923 0.843151 -0.289143 0.534136 0.794415 0.298169 0.909543
-0.556873 7.06324 0.442351 -0.289143 0.534136 0.794415 0.262479 0.955481
-0.708707 6.711923 0.6233 -0.289143 0.534136 0.794415 0.298169 0.970906
0.820766 6.711923 0.066617 0.732137 0.534136 0.422699 0.225646 0.722492
0.347531 7.06324 0.442351 0.732137 0.534136 0.422699 0.261335 0.684322
0.499365 6.711923 0.6233 0.732137 0.534136 0.422699 0.225646 0.665940
-0.426072 6.711923 -0.979604 0 0.534136 -0.845398 0.494500 0.036261
0.135941 7.06324 -0.757637 0 0.534136 -0.845398 0.551594 0.000572
0.21673 6.711923 -0.979604 0 0.534136 -0.845398 0.559801 0.036261
-0.708707 6.711923 0.6233 -0.732136 0.534136 0.422699 0.576665 0.382051
-0.797484 7.06324 0.025599 -0.732136 0.534136 0.422699 0.639807 0.350847
-1.030108 6.711923 0.066617 -0.732136 0.534136 0.422699 0.633069 0.386142
0.499365 6.711923 0.6233 0.289143 0.534136 0.794415 0.298169 0.848180
-0.104671 7.06324 0.606939 0.289143 0.534136 0.794415 0.262479 0.909543
-0.104671 6.711923 0.843151 0.289143 0.534136 0.794415 0.298169 0.909543
0.21673 6.711923 -0.979604 0.543412 0.534136 -0.647613 0.559801 0.036261
0.504579 7.06324 -0.448312 0.543412 0.534136 -0.647613 0.589043 0.000572
0.709145 6.711923 -0.566419 0.543412 0.534136 -0.647613 0.609825 0.036261
-1.030108 6.711923 0.066617 -0.832555 0.534136 -0.146802 0.633069 0.386142
-0.71392 7.06324 -0.448313 -0.832555 0.534136 -0.146802 0.687824 0.354330
-0.918487 6.711923 -0.566419 -0.832555 0.534136 -0.146802 0.697209 0.390794
0.214461 7.298377 -0.040291 -0 1 0 0.494914 0.783575
0.006162 7.298377 -0.401074 -0 1 0 0.531565 0.804736
-0.385311 7.298377 -0.25859 -0 1 0 0.517090 0.844505
0.135941 7.06324 -0.757637 0.353872 0.834818 -0.421728 0.567788 0.791552
0.175969 7.298377 -0.25859 0.353872 0.834818 -0.421728 0.517090 0.787485
0.504579 7.06324 -0.448312 0.353872 0.834818 -0.421728 0.536364 0.754102
-0.71392 7.06324 -0.448313 -0.542163 0.834818 -0.095598 0.536364 0.877887
-0.423803 7.298377 -0.040291 -0.542163 0.834818 -0.095598 0.494914 0.848415
-0.385311 7.298377 -0.25859 -0.542163 0.834818 -0.095598 0.517090 0.844505
0.504579 7.06324 -0.448312 0.542163 0.834818 -0.095598 0.536364 0.754102
0.214461 7.298377 -0.040291 0.542163 0.834818 -0.095598 0.494914 0.783575
0.588142 7.06324 0.025599 0.542163 0.834818 -0.095598 0.488220 0.745613
-0.345282 7.06324 -0.757637 -0.353871 0.834818 -0.421728 0.567788 0.840438
-0.385311 7.298377 -0.25859 -0.353871 0.834818 -0.421728 0.517090 0.844505
-0.215504 7.298377 -0.401074 -0.353871 0.834818 -0.421728 0.531565 0.827254
-0.556873 7.06324 0.442351 -0.188291 0.834818 0.517326 0.445883 0.861933
-0.104671 7.298377 0.227493 -0.188291 0.834818 0.517326 0.467710 0.815995
-0.31297 7.298377 0.151678 -0.188291 0.834818 0.517326 0.475412 0.837156
0.588142 7.06324 0.025599 0.47677 0.834818 0.275263 0.488220 0.745613
0.103628 7.298377 0.151678 0.47677 0.834818 0.275263 0.475412 0.794834
0.347531 7.06324 0.442351 0.47677 0.834818 0.275263 0.445883 0.770057
-0.345282 7.06324 -0.757637 0 0.834818 -0.550526 0.567788 0.840438
0.006162 7.298377 -0.401074 0 0.834818 -0.550526 0.531565 0.804736
0.135941 7.06324 -0.757637 0 0.834818 -0.550526 0.567788 0.791552
-0.556873 7.06324 0.442351 -0.47677 0.834818 0.275263 0.445883 0.861933
-0.423803 7.298377 -0.040291 -0.47677 0.834818 0.275263 0.494914 0.848415
-0.797484 7.06324 0.025599 -0.47677 0.834818 0.275263 0.488220 0.886376
-1.847488 3.701439 0.092126 -0.266241 -0.957968 0.106832 0.841024 0.511559
-2.119642 3.827657 0.545678 -0.266241 -0.957968 0.106832 0.881982 0.476776
-2.277001 3.840995 0.273124 -0.266241 -0.957968 0.106832 0.852059 0.465514
-1.022124 3.628555 -0.30491 -0.014933 -0.36113 -0.932396 0.571209 0.775838
-1.728705 4.371953 -0.581522 -0.014933 -0.36113 -0.932396 0.645849 0.848534
-0.970697 4.379441 -0.596562 -0.014933 -0.36113 -0.932396 0.568931 0.852264
-0.93212 3.695589 0.34964 0.021154 -0.158692 0.987102 0.419043 0.968041
-1.613904 4.519473 0.496703 0.021154 -0.158692 0.987102 0.342429 0.891017
-1.690129 3.688101 0.36468 0.021154 -0.158692 0.987102 0.342429 0.975829
-1.040583 5.219565 -0.20021 -0.984808 -1e-06 -0.173648 0.649137 0.539312
-1.089479 6.296317 0.077086 -0.984808 -1e-06 -0.173648 0.628954 0.428175
-0.970696 6.296317 -0.596562 -0.984808 -1e-06 -0.173648 0.697209 0.433126
-1.728705 4.371953 -0.581522 -0.45102 -0.296134 -0.841954 0.645849 0.848534
-2.209646 3.760623 -0.108872 -0.45102 -0.296134 -0.841954 0.692275 0.784592
-2.158219 4.511509 -0.400524 -0.45102 -0.296134 -0.841954 0.689997 0.861018
-1.089479 3.708928 0.077086 0.008794 -0.998505 -0.053943 0.852059 0.587785
-1.690129 3.688101 0.36468 0.008794 -0.998505 -0.053943 0.870947 0.522822
-1.847488 3.701439 0.092126 0.008794 -0.998505 -0.053943 0.841024 0.511559
-1.089479 5.229706 0.077086 -0.007223 0.991536 0.12963 0.339069 0.820047
-1.681007 5.185732 0.380481 -0.007223 0.991536 0.12963 0.359691 0.755737
-0.922998 5.19322 0.36544 -0.007223 0.991536 0.12963 0.370726 0.831963
-1.040583 5.219565 -0.20021 -0.019147 0.835671 -0.548897 0.312084 0.829536
-1.728705 4.953341 -0.581522 -0.019147 0.835671 -0.548897 0.262479 0.766874
-1.798592 5.212077 -0.18517 -0.019147 0.835671 -0.548897 0.301050 0.753311
-0.970697 4.379441 -0.596562 -0.019838 0 -0.999803 0.833010 0.807497
-1.728705 4.953341 -0.581522 -0.019838 0 -0.999803 0.743357 0.771564
-0.970697 4.960829 -0.596562 -0.019838 0 -0.999803 0.817436 0.750525
-1.089479 5.229706 0.077086 -0.010633 0.999205 -0.038416 0.339069 0.820047
-1.798592 5.212077 -0.18517 -0.010633 0.999205 -0.038416 0.301050 0.753311
-1.847488 5.222218 0.092126 -0.010633 0.999205 -0.038416 0.328034 0.743822
-0.922998 5.19322 0.36544 0.017823 0.17356 0.984662 0.429163 0.893668
-1.613904 4.519473 0.496703 0.017823 0.17356 0.984662 0.496911 0.964529
-0.855896 4.526961 0.481663 0.017823 0.17356 0.984662 0.496911 0.887520
-1.089479 3.708928 0.077086 0.013792 -0.977989 0.208202 0.852059 0.587785
-1.780133 3.621067 -0.28987 0.013792 -0.977989 0.208202 0.803851 0.524631
-1.022124 3.628555 -0.30491 0.013792 -0.977989 0.208202 0.814886 0.600856
-2.277001 3.840995 0.273124 -0.92819 -0.361655 -0.087569 0.891917 0.009704
-2.59052 4.678759 0.136365 -0.92819 -0.361655 -0.087569 0.875901 0.094437
-2.209646 3.760623 -0.108872 -0.92819 -0.361655 -0.087569 0.853327 0.000572
-2.158219 5.092896 -0.400524 -0.678518 -0 -0.734584 0.883125 0.524035
-2.56154 5.101896 -0.027986 -0.678518 -0 -0.734584 0.916441 0.547902
-2.56154 5.429518 -0.027986 -0.678518 -0 -0.734584 0.897667 0.575384
-1.847488 5.222218 0.092126 0.29073 0.955653 -0.046933 0.328034 0.743822
-2.11052 5.325288 0.561478 0.29073 0.955653 -0.046933 0.370726 0.709692
-1.681007 5.185732 0.380481 0.29073 0.955653 -0.046933 0.359691 0.755737
-1.798592 5.212077 -0.18517 0.045223 0.840147 -0.540469 0.301050 0.753311
-2.158219 5.092896 -0.400524 0.045223 0.840147 -0.540469 0.273514 0.720829
-2.228105 5.351633 -0.004172 0.045223 0.840147 -0.540469 0.312084 0.707265
-1.847488 5.222218 0.092126 0.317024 0.94818 0.021225 0.328034 0.743822
-2.228105 5.351633 -0.004172 0.317024 0.94818 0.021225 0.312084 0.707265
-2.277001 5.361773 0.273124 0.317024 0.94818 0.021225 0.339069 0.697776
-1.681007 5.185732 0.380481 0.4344 0.197066 0.878898 0.979860 0.873980
-2.043417 4.659029 0.677701 0.4344 0.197066 0.878898 0.916067 0.861776
-1.613904 4.519473 0.496703 0.4344 0.197066 0.878898 0.920624 0.907428
-1.728705 4.953341 -0.581522 -0.388331 -0 -0.92152 0.648127 0.907552
-2.158219 4.511509 -0.400524 -0.388331 -0 -0.92152 0.689997 0.861018
-2.158219 5.092896 -0.400524 -0.388331 -0 -0.92152 0.692275 0.920036
-1.847488 3.701439 0.092126 -0.244174 -0.956733 0.158244 0.841024 0.511559
-2.209646 3.760623 -0.108872 -0.244174 -0.956733 0.158244 0.814886 0.478585
-1.780133 3.621067 -0.28987 -0.244174 -0.956733 0.158244 0.803851 0.524631
-1.613904 4.519473 0.496703 0.332604 -0.177575 0.926197 0.834154 0.678668
-2.119642 3.827657 0.545678 0.332604 -0.177575 0.926197 0.910637 0.637084
-1.690129 3.688101 0.36468 0.332604 -0.177575 0.926197 0.877247 0.605620
-2.496848 5.185026 0.579612 -0.866026 -2e-06 0.499999 0.916067 0.948801
-2.534661 5.560474 0.514119 -0.866026 -2e-06 0.499999 0.922720 0.910660
-2.628476 5.581035 0.351626 -0.866026 -2e-06 0.499999 0.939228 0.908572
-2.628476 4.724051 0.351626 -0.984808 -0 -0.173649 0.897647 0.099583
-2.628476 5.581035 0.351626 -0.984808 -0 -0.173649 0.895471 0.186615
-2.56154 5.101896 -0.027986 -0.984808 -0 -0.173649 0.858136 0.136992
-2.043417 4.659029 0.677701 -0.338063 -0.11729 0.933786 0.867543 0.710132
-2.539802 4.716534 0.505215 -0.338063 -0.11729 0.933786 0.910637 0.736963
-2.119642 3.827657 0.545678 -0.338063 -0.11729 0.933786 0.910637 0.637084
-2.158219 4.511509 -0.400524 -0.792773 -0.17274 -0.584527 0.821801 0.076089
-2.59052 4.678759 0.136365 -0.792773 -0.17274 -0.584527 0.875901 0.094437
-2.56154 5.101896 -0.027986 -0.792773 -0.17274 -0.584527 0.858136 0.136992
-2.277001 3.840995 0.273124 -0.81414 -0.364247 0.452217 0.891917 0.009704
-2.539802 4.716534 0.505215 -0.81414 -0.364247 0.452217 0.913264 0.099210
-2.628476 4.724051 0.351626 -0.81414 -0.364247 0.452217 0.897647 0.099583
-2.277001 5.361773 0.273124 0.492325 0.85235 -0.176394 0.339069 0.697776
-2.534661 5.560474 0.514119 0.492325 0.85235 -0.176394 0.358961 0.667963
-2.11052 5.325288 0.561478 0.492325 0.85235 -0.176394 0.370726 0.709692
-2.228105 5.351633 -0.004172 0.23049 0.83293 -0.503092 0.312084 0.707265
-2.56154 5.429518 -0.027986 0.23049 0.83293 -0.503092 0.304180 0.674239
-2.600923 5.57532 0.195365 0.23049 0.83293 -0.503092 0.325916 0.666596
-2.277001 5.361773 0.273124 0.53848 0.840187 0.064225 0.339069 0.697776
-2.600923 5.57532 0.195365 0.53848 0.840187 0.064225 0.325916 0.666596
-2.628476 5.581035 0.351626 0.53848 0.840187 0.064225 0.341122 0.661249
-2.11052 5.325288 0.561478 -0.015583 0.170301 0.985269 0.975302 0.828328
-2.496848 5.185026 0.579612 -0.015583 0.170301 0.985269 0.946480 0.798119
-2.043417 4.659029 0.677701 -0.015583 0.170301 0.985269 0.916067 0.861776
1.274292 3.744616 0.034111 0.716462 -0.634807 0.289314 0.942673 0.709652
1.498957 3.858098 -0.273252 0.716462 -0.634807 0.289314 0.953897 0.740987
1.579655 4.157756 0.184408 0.716462 -0.634807 0.289314 0.984790 0.694793
0.762823 4.353001 0.28028 0.006957 0.137828 0.990432 0.215663 0.823483
1.087381 3.779195 0.35785 0.006957 0.137828 0.990432 0.253214 0.878935
1.156978 4.641922 0.237305 0.006957 0.137828 0.990432 0.253215 0.791007
0.786104 4.542636 -0.456197 0.984807 -0 -0.17365 0.404783 0.839402
0.761354 6.296317 -0.596562 0.984807 -0 -0.17365 0.419043 0.661249
0.843234 4.607583 -0.132205 0.984807 -0 -0.17365 0.371870 0.832804
0.786104 4.542636 -0.456197 -0.329066 0.316593 -0.889654 0.766281 0.480172
1.155509 4.411392 -0.639537 -0.329066 0.316593 -0.889654 0.726866 0.474472
0.761354 4.122471 -0.596562 -0.329066 0.316593 -0.889654 0.760360 0.437826
0.843234 4.607583 -0.132205 -0.485808 0.733468 0.47541 0.156010 0.933433
1.274292 4.78529 0.034111 -0.485808 0.733468 0.47541 0.177552 0.975134
1.237388 4.896503 -0.17518 -0.485808 0.733468 0.47541 0.156010 0.973712
1.016279 3.945569 -0.756366 0.559473 -0.114905 -0.820845 0.631069 0.000572
1.460873 4.202037 -0.48924 0.559473 -0.114905 -0.820845 0.660474 0.043631
1.155509 3.788897 -0.639537 0.559473 -0.114905 -0.820845 0.616272 0.015882
1.274292 4.78529 0.034111 -0.797468 0.60232 -0.035433 0.053090 0.925445
1.462342 5.055062 0.387602 -0.797468 0.60232 -0.035433 0.077467 0.963476
1.579655 5.198431 0.184408 -0.797468 0.60232 -0.035433 0.053090 0.970106
0.761354 4.122471 -0.596562 -0.332486 0.321722 -0.886537 0.760360 0.437826
1.016279 3.945569 -0.756366 -0.332486 0.321722 -0.886537 0.731437 0.425294
0.622124 3.656648 -0.713391 -0.332486 0.321722 -0.886537 0.764931 0.388648
0.761354 3.499976 -0.596562 0.269268 -0.490612 -0.828731 0.747936 0.375821
1.193593 3.444957 -0.423549 0.269268 -0.490612 -0.828731 0.703783 0.378968
0.799438 3.156037 -0.380574 0.269268 -0.490612 -0.828731 0.737277 0.342322
0.880137 4.496369 0.077086 -0.556835 0.795299 0.239656 0.177552 0.934856
1.156978 4.641922 0.237305 -0.556835 0.795299 0.239656 0.196781 0.961050
1.274292 4.78529 0.034111 -0.556835 0.795299 0.239656 0.177552 0.975134
0.761354 3.499976 -0.596562 0.229709 -0.442327 -0.866937 0.747936 0.375821
1.016279 3.945569 -0.756366 0.229709 -0.442327 -0.866937 0.731437 0.425294
1.155509 3.788897 -0.639537 0.229709 -0.442327 -0.866937 0.714441 0.412467
0.880137 3.455695 0.077086 0.574274 -0.727639 0.375169 0.537143 0.942204
1.193593 3.444957 -0.423549 0.574274 -0.727639 0.375169 0.512440 0.887520
1.274292 3.744616 0.034111 0.574274 -0.727639 0.375169 0.498055 0.932485
0.843234 4.607583 -0.132205 -0.594235 0.802336 -0.056054 0.156010 0.933433
1.180259 4.831557 -0.499171 -0.594235 0.802336 -0.056054 0.122661 0.971510
0.786104 4.542636 -0.456197 -0.594235 0.802336 -0.056054 0.122661 0.931231
0.880137 3.455695 0.077086 0.568873 -0.715849 0.4049 0.537143 0.942204
1.087381 3.779195 0.35785 0.568873 -0.715849 0.4049 0.512440 0.967631
0.693226 3.490274 0.400825 0.568873 -0.715849 0.4049 0.551528 0.977350
1.485623 5.244697 -0.348874 0.001318 0.962201 -0.272338 0.690417 0.338403
1.663776 5.310674 -0.114909 0.001318 0.962201 -0.272338 0.666129 0.321009
1.660762 5.219356 -0.437561 0.001318 0.962201 -0.272338 0.698902 0.320355
1.579655 4.157756 0.184408 0.118158 -0.788147 0.604038 0.868408 0.902401
1.949709 3.872689 -0.259934 0.118158 -0.788147 0.604038 0.914924 0.866523
1.911213 4.204588 0.180658 0.118158 -0.788147 0.604038 0.870050 0.868756
1.460873 4.202037 -0.48924 -0.044959 -0.793283 -0.607192 0.799286 0.521777
1.714745 4.307308 -0.645572 -0.044959 -0.793283 -0.607192 0.784304 0.548099
1.868073 4.189716 -0.503294 -0.044959 -0.793283 -0.607192 0.799286 0.563168
1.237388 4.896503 -0.17518 -0.808184 0.588418 0.024553 0.029247 0.928793
1.485623 5.244697 -0.348874 -0.808184 0.588418 0.024553 0.000572 0.956002
1.180259 4.831557 -0.499171 -0.808184 0.588418 0.024553 0.000572 0.911341
1.087381 3.779195 0.35785 0.63999 -0.632013 0.437005 0.946506 0.676800
1.579655 4.157756 0.184408 0.63999 -0.632013 0.437005 0.984790 0.694793
1.392744 4.192336 0.508148 0.63999 -0.632013 0.437005 0.988622 0.661940
1.237388 4.896503 -0.17518 -0.803901 0.454717 0.383374 0.029247 0.928793
1.579655 5.198431 0.184408 -0.803901 0.454717 0.383374 0.053090 0.970106
1.542752 5.309644 -0.024883 -0.803901 0.454717 0.383374 0.029247 0.973455
1.180259 4.831557 -0.499171 0.041437 0.31439 -0.948389 0.722080 0.010356
1.460873 4.824532 -0.48924 0.041437 0.31439 -0.948389 0.723530 0.038835
1.155509 4.411392 -0.639537 0.041437 0.31439 -0.948389 0.679328 0.011086
1.156978 4.641922 0.237305 -0.599817 0.157987 0.784385 0.974518 0.538455
1.392744 4.192336 0.508148 -0.599817 0.157987 0.784385 0.946972 0.494856
1.462342 5.055062 0.387602 -0.599817 0.157987 0.784385 0.946972 0.582784
1.155509 4.411392 -0.639537 0.245143 0.166274 -0.955122 0.679328 0.011086
1.321642 4.358709 -0.606068 0.245143 0.166274 -0.955122 0.675271 0.028321
1.016279 3.945569 -0.756366 0.245143 0.166274 -0.955122 0.631069 0.000572
1.155509 3.788897 -0.639537 0.722262 -0.308689 -0.61891 0.946506 0.778127
1.498957 3.858098 -0.273252 0.722262 -0.308689 -0.61891 0.953897 0.740987
1.193593 3.444957 -0.423549 0.722262 -0.308689 -0.61891 0.911781 0.755847
1.911213 4.204588 0.180658 0.519362 -0.743773 0.420791 0.870050 0.868756
2.096488 4.537934 0.541191 0.519362 -0.743773 0.420791 0.834154 0.848577
1.683502 4.214353 0.478971 0.519362 -0.743773 0.420791 0.838900 0.890739
1.663776 5.310674 -0.114909 -0.581711 0.784061 -0.216473 0.666129 0.321009
2.073747 5.542936 -0.375341 -0.581711 0.784061 -0.216473 0.691356 0.278604
1.660762 5.219356 -0.437561 -0.581711 0.784061 -0.216473 0.698902 0.320355
1.911213 4.204588 0.180658 0.456875 -0.690855 0.560343 0.870050 0.868756
2.362695 4.19627 -0.197714 0.456875 -0.690855 0.560343 0.910177 0.824362
2.324198 4.528169 0.242878 0.456875 -0.690855 0.560343 0.865303 0.826595
1.579655 4.157756 0.184408 0.09024 -0.983444 0.157145 0.868408 0.902401
1.683502 4.214353 0.478971 0.09024 -0.983444 0.157145 0.838900 0.890739
1.392744 4.192336 0.508148 0.09024 -0.983444 0.157145 0.834833 0.920144
1.542752 5.309644 -0.024883 0.243392 0.909278 0.337599 0.657347 0.333566
1.697218 5.220186 0.104696 0.243392 0.909278 0.337599 0.643730 0.318266
1.663776 5.310674 -0.114909 0.243392 0.909278 0.337599 0.666129 0.321009
1.460873 4.824532 -0.48924 -0.182926 0.218086 -0.958632 0.723530 0.038835
1.660762 5.219356 -0.437561 -0.182926 0.218086 -0.958632 0.765064 0.056042
1.740069 4.797212 -0.548731 -0.182926 0.218086 -0.958632 0.722913 0.067327
1.462342 5.055062 0.387602 0.525975 0.227432 0.819527 0.017349 0.822822
1.683502 4.214353 0.478971 0.525975 0.227432 0.819527 0.030175 0.910197
1.588241 5.065221 0.30398 0.525975 0.227432 0.819527 0.030175 0.823219
1.460873 4.824532 -0.48924 -0.062771 0.260398 -0.963459 0.723530 0.038835
1.714745 4.307308 -0.645572 -0.062771 0.260398 -0.963459 0.673093 0.068536
1.321642 4.358709 -0.606068 -0.062771 0.260398 -0.963459 0.675271 0.028321
1.498957 3.858098 -0.273252 0.043038 -0.601351 -0.797825 0.625928 0.050139
1.868073 4.189716 -0.503294 0.043038 -0.601351 -0.797825 0.662363 0.084974
1.949709 3.872689 -0.259934 0.043038 -0.601351 -0.797825 0.630878 0.095686
1.579655 5.198431 0.184408 0.347345 0.638695 0.6866 0.030814 0.809674
1.588241 5.065221 0.30398 0.347345 0.638695 0.6866 0.030175 0.823219
1.697218 5.220186 0.104696 0.347345 0.638695 0.6866 0.042928 0.808806
2.076762 5.634254 -0.052689 -0.159121 0.904036 0.396735 0.658583 0.279257
2.555501 5.635345 0.136838 -0.159121 0.904036 0.396735 0.637915 0.231207
2.522059 5.725832 -0.082768 -0.159121 0.904036 0.396735 0.660314 0.233950
2.324198 4.528169 0.242878 0.210112 -0.958686 0.191768 0.865303 0.826595
2.541784 4.629512 0.511113 0.210112 -0.958686 0.191768 0.838900 0.803486
2.096488 4.537934 0.541191 0.210112 -0.958686 0.191768 0.834154 0.848577
2.076762 5.634254 -0.052689 -0.211373 0.94098 -0.264345 0.658583 0.279257
2.519044 5.634514 -0.405419 -0.211373 0.94098 -0.264345 0.693086 0.233297
2.073747 5.542936 -0.375341 -0.211373 0.94098 -0.264345 0.691356 0.278604
1.663776 5.310674 -0.114909 -0.60523 0.699324 0.38032 0.666129 0.321009
2.110204 5.543767 0.166916 -0.60523 0.699324 0.38032 0.636184 0.276514
2.076762 5.634254 -0.052689 -0.60523 0.699324 0.38032 0.658583 0.279257
1.660762 5.219356 -0.437561 -0.046985 0.246119 -0.9681 0.146408 0.918880
2.153054 5.120792 -0.486511 -0.046985 0.246119 -0.9681 0.166289 0.871911
1.740069 4.797212 -0.548731 -0.046985 0.246119 -0.9681 0.190036 0.919627
1.588241 5.065221 0.30398 -0.271798 0.164574 0.948178 0.030175 0.823219
2.096488 4.537934 0.541191 -0.271798 0.164574 0.948178 0.075526 0.882197
2.001226 5.388802 0.3662 -0.271798 0.164574 0.948178 0.075526 0.795219
1.740069 4.797212 -0.548731 -0.004316 0.194134 -0.980965 0.722913 0.067327
2.12773 4.630889 -0.583352 -0.004316 0.194134 -0.980965 0.709052 0.107877
1.714745 4.307308 -0.645572 -0.004316 0.194134 -0.980965 0.673093 0.068536
1.868073 4.189716 -0.503294 0.471814 -0.457213 -0.753889 0.662363 0.084974
2.362695 4.19627 -0.197714 0.471814 -0.457213 -0.753889 0.666837 0.135026
1.949709 3.872689 -0.259934 0.471814 -0.457213 -0.753889 0.630878 0.095686
1.697218 5.220186 0.104696 -0.620831 0.746089 0.240667 0.643730 0.318266
2.001226 5.388802 0.3662 -0.620831 0.746089 0.240667 0.616272 0.288173
2.110204 5.543767 0.166916 -0.620831 0.746089 0.240667 0.636184 0.276514
1.868073 4.189716 -0.503294 0.436983 -0.403106 -0.804084 0.662363 0.084974
2.12773 4.630889 -0.583352 0.436983 -0.403106 -0.804084 0.709052 0.107877
2.281058 4.513298 -0.441074 0.436983 -0.403106 -0.804084 0.698322 0.124314
2.446523 5.480379 0.336122 0.72652 0.215527 0.65247 0.749565 0.909305
2.881117 5.091373 -0.019296 0.72652 0.215527 0.65247 0.800312 0.892270
2.833965 5.512537 -0.105913 0.72652 0.215527 0.65247 0.764743 0.866916
2.598351 5.21237 -0.516589 -0.156042 0.224026 -0.96201 0.166289 0.825728
2.869861 5.58883 -0.472962 -0.156042 0.224026 -0.96201 0.134386 0.791007
2.909117 5.379877 -0.527989 -0.156042 0.224026 -0.96201 0.155981 0.791377
2.522059 5.725832 -0.082768 0.418128 0.860547 0.290909 0.660314 0.233950
2.887907 5.589242 -0.204555 0.418128 0.860547 0.290909 0.671593 0.196438
2.871353 5.634031 -0.313255 0.418128 0.860547 0.290909 0.682680 0.197796
2.153054 5.120792 -0.486511 -0.113176 0.23309 -0.965847 0.166289 0.871911
2.519044 5.634514 -0.405419 -0.113176 0.23309 -0.965847 0.122661 0.824980
2.598351 5.21237 -0.516589 -0.113176 0.23309 -0.965847 0.166289 0.825728
2.001226 5.388802 0.3662 0.024157 0.20398 0.978677 0.075526 0.795219
2.541784 4.629512 0.511113 0.024157 0.20398 0.978677 0.121517 0.877985
2.446523 5.480379 0.336122 0.024157 0.20398 0.978677 0.121517 0.791007
2.153054 5.120792 -0.486511 -0.106559 0.198115 -0.974369 0.166289 0.871911
2.573027 4.722467 -0.61343 -0.106559 0.198115 -0.974369 0.214519 0.838273
2.12773 4.630889 -0.583352 -0.106559 0.198115 -0.974369 0.214519 0.884457
2.281058 4.513298 -0.441074 0.068607 -0.596301 -0.799824 0.698322 0.124314
2.807992 4.287847 -0.227792 0.068607 -0.596301 -0.799824 0.679545 0.179427
2.362695 4.19627 -0.197714 0.068607 -0.596301 -0.799824 0.666837 0.135026
2.110204 5.543767 0.166916 -0.129727 0.815873 0.563491 0.636184 0.276514
2.446523 5.480379 0.336122 -0.129727 0.815873 0.563491 0.618002 0.242866
2.555501 5.635345 0.136838 -0.129727 0.815873 0.563491 0.637915 0.231207
2.281058 4.513298 -0.441074 0.099403 -0.711742 -0.695372 0.435657 0.675815
2.573027 4.722467 -0.61343 0.099403 -0.711742 -0.695372 0.420186 0.706589
2.726355 4.604875 -0.471152 0.099403 -0.711742 -0.695372 0.435657 0.721155
2.324198 4.528169 0.242878 0.199781 -0.774162 0.600634 0.865303 0.826595
2.807992 4.287847 -0.227792 0.199781 -0.774162 0.600634 0.914924 0.779271
2.769495 4.619746 0.212799 0.199781 -0.774162 0.600634 0.870050 0.781504
2.972476 5.079179 -0.505498 0.977364 0.201001 -0.066017 0.821424 0.847600
2.909117 5.379877 -0.527989 0.977364 0.201001 -0.066017 0.794412 0.833154
2.99383 5.08654 -0.166955 0.977364 0.201001 -0.066017 0.806828 0.878750
2.972476 5.079179 -0.505498 0.716722 0.099393 -0.690239 0.821424 0.847600
2.896582 5.137384 -0.575923 0.716722 0.099393 -0.690239 0.818911 0.838666
2.909117 5.379877 -0.527989 0.716722 0.099393 -0.690239 0.794412 0.833154
2.833965 5.512537 -0.105913 0.780687 0.208558 0.589094 0.764743 0.866916
2.99383 5.08654 -0.166955 0.780687 0.208558 0.589094 0.806828 0.878750
2.887907 5.589242 -0.204555 0.780687 0.208558 0.589094 0.761670 0.854599
2.598351 5.21237 -0.516589 -0.142847 0.199034 -0.969526 0.166289 0.825728
2.896582 5.137384 -0.575923 -0.142847 0.199034 -0.969526 0.179854 0.797587
2.573027 4.722467 -0.61343 -0.142847 0.199034 -0.969526 0.214519 0.838273
2.726355 4.604875 -0.471152 0.619342 -0.371471 -0.691682 0.711029 0.168716
3.012885 4.922256 -0.38504 0.619342 -0.371471 -0.691682 0.745386 0.195295
2.807992 4.287847 -0.227792 0.619342 -0.371471 -0.691682 0.679545 0.179427
2.555501 5.635345 0.136838 0.698811 0.326818 0.636281 0.743357 0.884422
2.833965 5.512537 -0.105913 0.698811 0.326818 0.636281 0.764743 0.866916
2.887907 5.589242 -0.204555 0.698811 0.326818 0.636281 0.761670 0.854599
2.573027 4.722467 -0.61343 0.501823 -0.318633 -0.804143 0.721759 0.152278
2.972476 5.079179 -0.505498 0.501823 -0.318633 -0.804143 0.760970 0.189992
2.726355 4.604875 -0.471152 0.501823 -0.318633 -0.804143 0.711029 0.168716
2.769495 4.619746 0.212799 0.935722 -0.237582 0.260729 0.771342 0.576554
3.012885 4.922256 -0.38504 0.935722 -0.237582 0.260729 0.717958 0.534326
2.99383 5.08654 -0.166955 0.935722 -0.237582 0.260729 0.712108 0.561440
2.519044 5.634514 -0.405419 0.072531 0.959493 -0.272237 0.693086 0.233297
2.871353 5.634031 -0.313255 0.072531 0.959493 -0.272237 0.682680 0.197796
2.869861 5.58883 -0.472962 0.072531 0.959493 -0.272237 0.698902 0.197472
2.769495 4.619746 0.212799 0.791917 0.108309 0.600947 0.771342 0.576554
2.881117 5.091373 -0.019296 0.791917 0.108309 0.600947 0.717958 0.575261
2.541784 4.629512 0.511113 0.791917 0.108309 0.600947 0.783160 0.604477
-1.089479 1.804092 0.077086 -0.866025 0 0.5 0.499353 0.541293
-0.970697 1.804092 -0.596562 -0.984808 0 -0.173648 0.567788 0.541293
-0.446691 1.804092 -1.036255 -0.642788 0 -0.766044 0.053804 0.456929
0.761354 1.804092 -0.596562 0.642788 0 -0.766044 0.176528 0.456929
0.880137 3.455695 0.077086 0.984808 -0 -0.173649 0.967267 0.168355
0.880137 1.804092 0.077086 0.984808 -0 -0.173649 0.967267 0.000572
0.799438 3.156037 -0.380574 0.984808 -0 -0.173649 0.920774 0.137913
0.761354 1.804092 -0.596562 0.984808 -0 -0.173646 0.438029 0.456929
0.761354 3.499976 -0.596562 0.984808 -0 -0.173646 0.438029 0.284647
0.799438 3.156037 -0.380574 0.984808 -0 -0.173646 0.416087 0.319587
0.538117 1.804092 0.669482 0.866025 -0 0.5 0.309414 0.456929
-0.104671 -0.195908 0.903438 0 -1 0 0.613599 0.617687
-1.089479 -0.195908 0.077086 0 -1 0 0.568931 0.740410
-0.970697 -0.195908 -0.596562 -0 -1 0 0.992177 0.000572
-0.446691 -0.195908 -1.036255 -0 -1 0 0.968410 0.065871
0.237349 -0.195908 -1.036255 -0 -1 0 0.992177 0.131171
0.237349 -0.195908 -1.036255 0 -1 0 0.999428 0.450527
0.761354 -0.195908 -0.596562 0 -1 0 0.975661 0.515827
0.880137 -0.195908 0.077086 0 -1 0 0.999428 0.581127
0.880137 -0.195908 0.077086 0 -1 0 0.742214 0.640365
-1.089479 -0.195908 0.077086 0 -1 0 0.738086 0.772108
-0.970697 -0.195908 -0.596562 0 -1 0 0.693419 0.825341
0.237349 -0.195908 -1.036255 0 -1 0 0.738086 0.948064
-0.104671 6.296317 0.903438 -0.338886 0.13506 0.931083 0.340389 0.909543
0.761354 3.499976 -0.596562 0.642788 -0 -0.766044 0.747936 0.375821
0.761354 1.804092 -0.596562 0.642788 -0 -0.766044 0.714086 0.206897
0.237349 1.804092 -1.036255 0.642788 -0 -0.766044 0.766281 0.196438
0.237349 6.296317 -1.036255 0.642788 -0 -0.766044 0.123295 0.000572
0.622124 3.656648 -0.713391 0.642788 -0 -0.766044 0.162383 0.268731
0.761354 6.296317 -0.596562 0.642788 -0 -0.766044 0.615128 0.078482
0.622124 3.656648 -0.713391 0.642788 -0 -0.766044 0.764931 0.388648
-0.446691 6.296317 -1.036255 0 -0 -1 0.053805 0.000572
-0.446691 6.296317 -1.036255 -0.642788 0 -0.766044 0.820658 0.000572
-0.446691 1.804092 -1.036255 -0.642788 0 -0.766044 0.820658 0.456929
-0.970697 4.379441 -0.596562 -0.642788 0 -0.766044 0.767425 0.195304
-0.970697 4.379441 -0.596562 -0.642788 -0 -0.766044 0.833010 0.807497
-0.970697 4.379441 -0.596562 -0.642788 0 -0.766044 0.000572 0.195304
-0.104671 6.296317 0.903438 -0.34202 0 0.939693 0.242971 0.000572
-0.970697 4.379441 -0.596562 -0.984807 0 -0.173653 0.976600 0.187759
-0.970697 1.804092 -0.596562 -0.984807 0 -0.173653 0.976600 0.449384
-1.022124 3.628555 -0.30491 -0.984807 0 -0.173653 0.946972 0.264040
-1.089479 1.804092 0.077086 -0.984808 -0 -0.173645 0.499353 0.541293
-1.089479 3.708928 0.077086 -0.984808 -0 -0.173645 0.499353 0.347785
-1.022124 3.628555 -0.30491 -0.984808 -0 -0.173645 0.538159 0.355950
-1.089479 3.708928 0.077086 -0.866026 0 0.499999 0.881982 0.270861
-1.089479 1.804092 0.077086 -0.866026 0 0.499999 0.881982 0.464370
-0.93212 3.695589 0.34964 -0.866026 0 0.499999 0.854293 0.272216
-0.747459 6.296317 0.669482 -0.866025 1e-06 0.5 0.568931 0.423822
-1.089479 6.296317 0.077086 -0.866025 1e-06 0.5 0.628954 0.428175
-0.922998 5.19322 0.36544 -0.866025 1e-06 0.5 0.591631 0.537824
-1.089479 6.296317 0.077086 -0.866026 0 0.499998 0.628954 0.428175
-1.089479 5.229706 0.077086 -0.866026 0 0.499998 0.621116 0.536246
-0.922998 5.19322 0.36544 -0.866026 0 0.499998 0.591631 0.537824
-0.93212 3.695589 0.34964 -0.866025 -0 0.5 0.854293 0.272216
-1.089479 1.804092 0.077086 -0.866025 -0 0.5 0.881982 0.464370
-0.747459 1.804092 0.669482 -0.866025 -0 0.5 0.821801 0.464370
-0.747459 6.296317 0.669482 -0.866023 -1e-06 0.500004 0.568931 0.423822
-0.922998 5.19322 0.36544 -0.866023 -1e-06 0.500004 0.591631 0.537824
-0.855896 4.526961 0.481663 -0.866023 -1e-06 0.500004 0.574959 0.604477
-0.855896 4.526961 0.481663 -0.866024 1e-06 0.500003 0.840881 0.187759
-0.93212 3.695589 0.34964 -0.866024 1e-06 0.500003 0.854293 0.272216
-0.747459 1.804092 0.669482 -0.866024 1e-06 0.500003 0.821801 0.464370
0.538117 6.296317 0.669482 0.34202 -0 0.939693 0.308270 0.000572
0.538117 1.804092 0.669482 0.866026 -0 0.5 0.309414 0.456929
0.880137 1.804092 0.077086 0.866026 -0 0.5 0.369594 0.456929
0.693226 3.490274 0.400825 0.866026 -0 0.5 0.336706 0.285632
0.880137 1.804092 0.077086 0.866026 -0 0.499999 0.369594 0.456929
0.880137 3.455695 0.077086 0.866026 -0 0.499999 0.369594 0.289145
0.693226 3.490274 0.400825 0.866026 -0 0.499999 0.336706 0.285632
0.880137 6.296317 0.077086 0.866025 -0 0.5 0.183425 0.721429
0.538117 6.296317 0.669482 0.866025 -0 0.5 0.183425 0.661249
0.880137 4.496369 0.077086 0.866025 -0 0.5 0.000572 0.721429
0.762823 4.353001 0.28028 0.866026 1e-06 0.499998 0.905061 0.273836
0.880137 4.496369 0.077086 0.866026 1e-06 0.499998 0.883125 0.286367
0.538117 6.296317 0.669482 0.866026 1e-06 0.499998 0.925604 0.474123
0.538117 1.804092 0.669482 0.866025 -0 0.500001 0.309414 0.456929
0.693226 3.490274 0.400825 0.866025 -0 0.500001 0.336706 0.285632
0.538117 6.296317 0.669482 0.866025 -0 0.500001 0.309414 0.000572
0.504579 7.06324 -0.448312 0.832555 0.534136 -0.146802 0.261335 0.774803
0.820766 6.711923 0.066617 0.858091 0.13506 0.495419 0.225646 0.722492
-0.426072 6.711923 -0.979604 0 0.13506 -0.990837 0.494500 0.036261
-0.747459 6.296317 0.669482 -0.85809 0.13506 0.495419 0.568931 0.423822
0.499365 6.711923 0.6233 0.338886 0.13506 0.931083 0.298169 0.848180
0.237349 6.296317 -1.036255 0.636898 0.13506 -0.759025 0.561896 0.078482
-1.030108 6.711923 0.066617 -0.975784 0.13506 -0.172057 0.633069 0.386142
0.709145 6.711923 -0.566419 0.975784 0.13506 -0.172057 0.225646 0.786801
-0.970696 6.296317 -0.596562 -0.636898 0.13506 -0.759026 0.439173 0.078482
0.103628 7.298377 0.151678 0.188291 0.834818 0.517326 0.475412 0.794834
-0.71392 7.06324 -0.448313 -0.543411 0.534136 -0.647613 0.465258 0.000572
-0.104671 7.06324 0.606939 -0.289143 0.534136 0.794415 0.262479 0.909543
0.820766 6.711923 0.066617 0.732136 0.534136 0.422699 0.225646 0.722492
0.588142 7.06324 0.025599 0.732136 0.534136 0.422699 0.261335 0.726659
0.347531 7.06324 0.442351 0.732136 0.534136 0.422699 0.261335 0.684322
-0.345282 7.06324 -0.757637 0 0.534136 -0.845398 0.502707 0.000572
-0.556873 7.06324 0.442351 -0.732136 0.534136 0.422699 0.597581 0.347785
0.347531 7.06324 0.442351 0.289143 0.534136 0.794415 0.262479 0.863604
0.135941 7.06324 -0.757637 0.543412 0.534136 -0.647613 0.551594 0.000572
-0.797484 7.06324 0.025599 -0.832555 0.534136 -0.146802 0.639807 0.350847
-0.423803 7.298377 -0.040291 0 1 0 0.494914 0.848415
-0.31297 7.298377 0.151678 0 1 0 0.475412 0.837156
-0.104671 7.298377 0.227493 0 1 0 0.467710 0.815995
0.103628 7.298377 0.151678 0 1 0 0.475412 0.794834
0.175969 7.298377 -0.25859 0 1 0 0.517090 0.787485
-0.215504 7.298377 -0.401074 -0 1 0 0.531565 0.827254
0.006162 7.298377 -0.401074 0.353872 0.834818 -0.421728 0.531565 0.804736
-0.797484 7.06324 0.025599 -0.542163 0.834818 -0.095598 0.488220 0.886376
0.175969 7.298377 -0.25859 0.542163 0.834818 -0.095598 0.517090 0.787485
-0.345282 7.06324 -0.757637 -0.353872 0.834818 -0.421728 0.567788 0.840438
-0.71392 7.06324 -0.448313 -0.353872 0.834818 -0.421728 0.536364 0.877887
-0.385311 7.298377 -0.25859 -0.353872 0.834818 -0.421728 0.517090 0.844505
-0.104671 7.06324 0.606939 -0.188291 0.834818 0.517326 0.429163 0.815995
0.214461 7.298377 -0.040291 0.47677 0.834818 0.275263 0.494914 0.783575
-0.215504 7.298377 -0.401074 0 0.834818 -0.550526 0.531565 0.827254
-0.31297 7.298377 0.151678 -0.47677 0.834818 0.275263 0.475412 0.837156
-1.690129 3.688101 0.36468 -0.266241 -0.957968 0.106832 0.870947 0.522822
-1.780133 3.621067 -0.28987 -0.014933 -0.36113 -0.932396 0.648127 0.772108
-0.93212 3.695589 0.34964 0.021154 -0.158692 0.987101 0.419043 0.968041
-0.855896 4.526961 0.481663 0.021154 -0.158692 0.987101 0.419043 0.883229
-1.613904 4.519473 0.496703 0.021154 -0.158692 0.987101 0.342429 0.891017
-0.970696 6.296317 -0.596562 -0.984808 0 -0.173647 0.697209 0.433126
-0.970697 4.960829 -0.596562 -0.984808 0 -0.173647 0.687395 0.568440
-1.040583 5.219565 -0.20021 -0.984808 0 -0.173647 0.649137 0.539312
-1.040583 5.219565 -0.20021 -0.984807 -0 -0.17365 0.649137 0.539312
-1.089479 5.229706 0.077086 -0.984807 -0 -0.17365 0.621116 0.536246
-1.089479 6.296317 0.077086 -0.984807 -0 -0.17365 0.628954 0.428175
-1.780133 3.621067 -0.28987 -0.45102 -0.296134 -0.841954 0.648127 0.772108
-0.93212 3.695589 0.34964 0.008794 -0.998505 -0.053943 0.881981 0.599047
-1.847488 5.222218 0.092126 -0.007223 0.991536 0.12963 0.328034 0.743822
-0.970697 4.960829 -0.596562 -0.019147 0.835671 -0.548897 0.273514 0.843100
-1.728705 4.371953 -0.581522 -0.019838 -0 -0.999803 0.758931 0.828536
-1.089479 5.229706 0.077086 -0.010633 0.999205 -0.038417 0.339069 0.820047
-1.040583 5.219565 -0.20021 -0.010633 0.999205 -0.038417 0.312084 0.829536
-1.798592 5.212077 -0.18517 -0.010633 0.999205 -0.038417 0.301050 0.753311
-1.681007 5.185732 0.380481 0.017823 0.17356 0.984662 0.429163 0.970676
-1.847488 3.701439 0.092126 0.013792 -0.977989 0.208202 0.841024 0.511559
-2.628476 4.724051 0.351626 -0.92819 -0.361655 -0.087569 0.897647 0.099583
-2.158219 5.092896 -0.400524 -0.678517 0 -0.734584 0.883125 0.524035
-2.158219 4.511509 -0.400524 -0.678517 0 -0.734584 0.916441 0.475267
-2.56154 5.101896 -0.027986 -0.678517 0 -0.734584 0.916441 0.547902
-2.277001 5.361773 0.273124 0.29073 0.955653 -0.046933 0.339069 0.697776
-1.728705 4.953341 -0.581522 0.045223 0.840147 -0.540469 0.262479 0.766874
-1.798592 5.212077 -0.18517 0.317024 0.94818 0.021225 0.301050 0.753311
-2.11052 5.325288 0.561478 0.4344 0.197066 0.878898 0.975302 0.828328
-1.728705 4.371953 -0.581522 -0.388331 0 -0.92152 0.645849 0.848534
-2.277001 3.840995 0.273124 -0.244174 -0.956733 0.158244 0.852059 0.465514
-1.613904 4.519473 0.496703 0.332604 -0.177576 0.926197 0.834154 0.678668
-2.043417 4.659029 0.677701 0.332604 -0.177576 0.926197 0.867543 0.710132
-2.119642 3.827657 0.545678 0.332604 -0.177576 0.926197 0.910637 0.637084
-2.628476 5.581035 0.351626 -0.866024 0 0.500002 0.939228 0.908572
-2.628476 4.724051 0.351626 -0.866024 0 0.500002 0.939228 0.995631
-2.496848 5.185026 0.579612 -0.866024 0 0.500002 0.916067 0.948801
-2.539802 4.716534 0.505215 -0.866026 1e-06 0.5 0.913264 0.099210
-2.496848 5.185026 0.579612 -0.866026 1e-06 0.5 0.919630 0.146977
-2.628476 4.724051 0.351626 -0.866026 1e-06 0.5 0.897647 0.099583
-2.56154 5.429518 -0.027986 -0.984808 0 -0.173647 0.767425 0.484159
-2.56154 5.101896 -0.027986 -0.984808 0 -0.173647 0.788093 0.458072
-2.600923 5.57532 0.195365 -0.984808 0 -0.173647 0.776011 0.509859
-2.59052 4.678759 0.136365 -0.984808 3e-06 -0.173646 0.875901 0.094437
-2.628476 4.724051 0.351626 -0.984808 3e-06 -0.173646 0.897647 0.099583
-2.56154 5.101896 -0.027986 -0.984808 3e-06 -0.173646 0.858136 0.136992
-2.628476 5.581035 0.351626 -0.984807 2e-06 -0.173651 0.788093 0.520172
-2.600923 5.57532 0.195365 -0.984807 2e-06 -0.173651 0.776011 0.509859
-2.56154 5.101896 -0.027986 -0.984807 2e-06 -0.173651 0.788093 0.458072
-2.496848 5.185026 0.579612 -0.338063 -0.11729 0.933786 0.886353 0.778127
-2.209646 3.760623 -0.108872 -0.792773 -0.17274 -0.584527 0.853327 0.000572
-2.119642 3.827657 0.545678 -0.81414 -0.364247 0.452217 0.919630 0.009041
-2.277001 5.361773 0.273124 0.492325 0.85235 -0.176395 0.339069 0.697776
-2.628476 5.581035 0.351626 0.492325 0.85235 -0.176395 0.341122 0.661249
-2.534661 5.560474 0.514119 0.492325 0.85235 -0.176395 0.358961 0.667963
-2.228105 5.351633 -0.004172 0.23049 0.832931 -0.503091 0.312084 0.707265
-2.158219 5.092896 -0.400524 0.23049 0.832931 -0.503091 0.273514 0.720829
-2.56154 5.429518 -0.027986 0.23049 0.832931 -0.503091 0.304180 0.674239
-2.277001 5.361773 0.273124 0.53848 0.840187 0.064224 0.339069 0.697776
-2.228105 5.351633 -0.004172 0.53848 0.840187 0.064224 0.312084 0.707265
-2.600923 5.57532 0.195365 0.53848 0.840187 0.064224 0.325916 0.666596
-2.534661 5.560474 0.514119 -0.015583 0.170301 0.985269 0.979860 0.779271
1.193593 3.444957 -0.423549 0.716462 -0.634807 0.289314 0.911781 0.755847
0.693226 3.490274 0.400825 0.006957 0.137828 0.990432 0.215663 0.911410
0.880137 6.296317 0.077086 0.984808 -0 -0.173645 0.183425 0.721429
0.880137 4.496369 0.077086 0.984808 -0 -0.173645 0.000572 0.721429
0.843234 4.607583 -0.132205 0.984808 -0 -0.173645 0.011870 0.742690
0.786104 4.542636 -0.456197 0.984808 -0 -0.173647 0.404783 0.839402
0.761354 4.122471 -0.596562 0.984808 -0 -0.173647 0.419043 0.882086
0.761354 6.296317 -0.596562 0.984808 -0 -0.173647 0.419043 0.661249
0.880137 6.296317 0.077086 0.984808 0 -0.173648 0.183425 0.721429
0.843234 4.607583 -0.132205 0.984808 0 -0.173648 0.011870 0.742690
0.761354 6.296317 -0.596562 0.984808 0 -0.173648 0.183425 0.789864
1.180259 4.831557 -0.499171 -0.329066 0.316593 -0.889654 0.732787 0.516818
0.880137 4.496369 0.077086 -0.485808 0.733468 0.47541 0.177552 0.934856
1.321642 4.358709 -0.606068 0.559473 -0.114905 -0.820845 0.675271 0.028321
1.156978 4.641922 0.237305 -0.797468 0.60232 -0.035433 0.077467 0.918815
1.155509 4.411392 -0.639537 -0.332486 0.321722 -0.886537 0.726866 0.474472
1.155509 3.788897 -0.639537 0.269268 -0.490612 -0.828731 0.714441 0.412467
0.762823 4.353001 0.28028 -0.556835 0.795299 0.239656 0.196781 0.920771
0.622124 3.656648 -0.713391 0.229709 -0.442327 -0.866937 0.764931 0.388648
0.799438 3.156037 -0.380574 0.574274 -0.727639 0.375169 0.551528 0.897239
1.237388 4.896503 -0.17518 -0.594235 0.802336 -0.056054 0.156010 0.973712
1.274292 3.744616 0.034111 0.568873 -0.715849 0.4049 0.498055 0.932485
1.485623 5.244697 -0.348874 -0.135966 0.975735 -0.171619 0.690417 0.338403
1.542752 5.309644 -0.024883 -0.135966 0.975735 -0.171619 0.657347 0.333566
1.663776 5.310674 -0.114909 -0.135966 0.975735 -0.171619 0.666129 0.321009
1.579655 4.157756 0.184408 0.010964 -0.837454 0.546398 0.868408 0.902401
1.498957 3.858098 -0.273252 0.010964 -0.837454 0.546398 0.914562 0.912333
1.949709 3.872689 -0.259934 0.010964 -0.837454 0.546398 0.914924 0.866523
1.460873 4.202037 -0.48924 -0.160728 -0.677822 -0.717442 0.660474 0.043631
1.321642 4.358709 -0.606068 -0.160728 -0.677822 -0.717442 0.675271 0.028321
1.714745 4.307308 -0.645572 -0.160728 -0.677822 -0.717442 0.673093 0.068536
1.542752 5.309644 -0.024883 -0.808184 0.588418 0.024553 0.029247 0.973455
1.087381 3.779195 0.35785 0.63999 -0.632013 0.437004 0.946506 0.676800
1.274292 3.744616 0.034111 0.63999 -0.632013 0.437004 0.942673 0.709652
1.579655 4.157756 0.184408 0.63999 -0.632013 0.437004 0.984790 0.694793
1.274292 4.78529 0.034111 -0.803901 0.454717 0.383374 0.053090 0.925445
1.485623 5.244697 -0.348874 0.041437 0.31439 -0.948389 0.766281 0.038106
1.087381 3.779195 0.35785 -0.599817 0.157987 0.784385 0.974518 0.450527
1.460873 4.824532 -0.48924 0.245143 0.166274 -0.955122 0.723530 0.038835
1.155509 3.788897 -0.639537 0.722262 -0.308689 -0.618909 0.946506 0.778127
1.460873 4.202037 -0.48924 0.722262 -0.308689 -0.618909 0.988622 0.763268
1.498957 3.858098 -0.273252 0.722262 -0.308689 -0.618909 0.953897 0.740987
2.324198 4.528169 0.242878 0.519362 -0.743773 0.420791 0.865303 0.826595
2.076762 5.634254 -0.052689 -0.581711 0.784061 -0.216473 0.658583 0.279257
1.949709 3.872689 -0.259934 0.456875 -0.690855 0.560343 0.914924 0.866523
1.579655 4.157756 0.184408 0.140044 -0.980341 0.138991 0.868408 0.902401
1.911213 4.204588 0.180658 0.140044 -0.980341 0.138991 0.870050 0.868756
1.683502 4.214353 0.478971 0.140044 -0.980341 0.138991 0.838900 0.890739
1.542752 5.309644 -0.024883 0.138443 0.884472 0.445581 0.657347 0.333566
1.579655 5.198431 0.184408 0.138443 0.884472 0.445581 0.635985 0.330440
1.697218 5.220186 0.104696 0.138443 0.884472 0.445581 0.643730 0.318266
1.460873 4.824532 -0.48924 -0.392863 0.312118 -0.865009 0.723530 0.038835
1.485623 5.244697 -0.348874 -0.392863 0.312118 -0.865009 0.766281 0.038106
1.660762 5.219356 -0.437561 -0.392863 0.312118 -0.865009 0.765064 0.056042
1.462342 5.055062 0.387602 0.089181 0.130771 0.987393 0.017349 0.822822
1.392744 4.192336 0.508148 0.089181 0.130771 0.987393 0.000572 0.909134
1.683502 4.214353 0.478971 0.089181 0.130771 0.987393 0.030175 0.910197
1.460873 4.824532 -0.48924 -0.185463 0.199774 -0.96213 0.723530 0.038835
1.740069 4.797212 -0.548731 -0.185463 0.199774 -0.96213 0.722913 0.067327
1.714745 4.307308 -0.645572 -0.185463 0.199774 -0.96213 0.673093 0.068536
1.498957 3.858098 -0.273252 -0.045304 -0.534861 -0.843725 0.625928 0.050139
1.460873 4.202037 -0.48924 -0.045304 -0.534861 -0.843725 0.660474 0.043631
1.868073 4.189716 -0.503294 -0.045304 -0.534861 -0.843725 0.662363 0.084974
1.579655 5.198431 0.184408 0.394949 0.627648 0.670875 0.030814 0.809674
1.462342 5.055062 0.387602 0.394949 0.627648 0.670875 0.017349 0.822822
1.588241 5.065221 0.30398 0.394949 0.627648 0.670875 0.030175 0.823219
2.110204 5.543767 0.166916 -0.159121 0.904036 0.396735 0.636184 0.276514
2.769495 4.619746 0.212799 0.210112 -0.958686 0.191768 0.870050 0.781504
2.522059 5.725832 -0.082768 -0.211373 0.94098 -0.264345 0.660314 0.233950
1.663776 5.310674 -0.114909 -0.60523 0.699324 0.380319 0.666129 0.321009
1.697218 5.220186 0.104696 -0.60523 0.699324 0.380319 0.643730 0.318266
2.110204 5.543767 0.166916 -0.60523 0.699324 0.380319 0.636184 0.276514
2.073747 5.542936 -0.375341 -0.046985 0.246119 -0.9681 0.122661 0.871164
1.683502 4.214353 0.478971 -0.271798 0.164574 0.948178 0.030175 0.910197
2.153054 5.120792 -0.486511 -0.004316 0.194134 -0.980965 0.758872 0.106668
1.868073 4.189716 -0.503294 0.471814 -0.457212 -0.753889 0.662363 0.084974
2.281058 4.513298 -0.441074 0.471814 -0.457212 -0.753889 0.698322 0.124314
2.362695 4.19627 -0.197714 0.471814 -0.457212 -0.753889 0.666837 0.135026
1.697218 5.220186 0.104696 -0.620831 0.746088 0.240668 0.643730 0.318266
1.588241 5.065221 0.30398 -0.620831 0.746088 0.240668 0.623818 0.329924
2.001226 5.388802 0.3662 -0.620831 0.746088 0.240668 0.616272 0.288173
1.714745 4.307308 -0.645572 0.436983 -0.403106 -0.804084 0.673093 0.068536
2.446523 5.480379 0.336122 0.726519 0.215527 0.65247 0.749565 0.909305
2.541784 4.629512 0.511113 0.726519 0.215527 0.65247 0.821424 0.960528
2.881117 5.091373 -0.019296 0.726519 0.215527 0.65247 0.800312 0.892270
2.598351 5.21237 -0.516589 -0.156042 0.224027 -0.96201 0.166289 0.825728
2.519044 5.634514 -0.405419 -0.156042 0.224027 -0.96201 0.122661 0.824980
2.869861 5.58883 -0.472962 -0.156042 0.224027 -0.96201 0.134386 0.791007
2.522059 5.725832 -0.082768 0.418128 0.860546 0.29091 0.660314 0.233950
2.555501 5.635345 0.136838 0.418128 0.860546 0.29091 0.637915 0.231207
2.887907 5.589242 -0.204555 0.418128 0.860546 0.29091 0.671593 0.196438
2.073747 5.542936 -0.375341 -0.113176 0.23309 -0.965847 0.122661 0.871164
2.096488 4.537934 0.541191 0.024157 0.20398 0.978677 0.075526 0.882197
2.598351 5.21237 -0.516589 -0.106559 0.198115 -0.974369 0.166289 0.825728
2.726355 4.604875 -0.471152 0.068607 -0.596301 -0.799824 0.711029 0.168716
2.001226 5.388802 0.3662 -0.129727 0.815873 0.563491 0.616272 0.288173
2.12773 4.630889 -0.583352 0.099403 -0.711742 -0.695372 0.420186 0.661249
2.362695 4.19627 -0.197714 0.199781 -0.774162 0.600634 0.910177 0.824362
2.887907 5.589242 -0.204555 0.977364 0.201 -0.066017 0.761670 0.854599
2.99383 5.08654 -0.166955 0.977364 0.201 -0.066017 0.806828 0.878750
2.909117 5.379877 -0.527989 0.977364 0.201 -0.066017 0.794412 0.833154
3.012885 4.922256 -0.38504 0.977364 0.200999 -0.066017 0.717958 0.534326
2.972476 5.079179 -0.505498 0.977364 0.200999 -0.066017 0.698353 0.529909
2.99383 5.08654 -0.166955 0.977364 0.200999 -0.066017 0.712108 0.561440
2.909117 5.379877 -0.527989 0.977364 0.201001 -0.066021 0.794412 0.833154
2.869861 5.58883 -0.472962 0.977364 0.201001 -0.066021 0.772738 0.829680
2.871353 5.634031 -0.313255 0.977364 0.201001 -0.066021 0.761976 0.842660
2.871353 5.634031 -0.313255 0.977365 0.200997 -0.066016 0.761976 0.842660
2.887907 5.589242 -0.204555 0.977365 0.200997 -0.066016 0.761670 0.854599
2.909117 5.379877 -0.527989 0.977365 0.200997 -0.066016 0.794412 0.833154
2.881117 5.091373 -0.019296 0.780687 0.208558 0.589094 0.800312 0.892270
2.598351 5.21237 -0.516589 -0.142846 0.199034 -0.969526 0.166289 0.825728
2.909117 5.379877 -0.527989 -0.142846 0.199034 -0.969526 0.155981 0.791377
2.896582 5.137384 -0.575923 -0.142846 0.199034 -0.969526 0.179854 0.797587
2.726355 4.604875 -0.471152 0.619342 -0.371471 -0.691683 0.711029 0.168716
2.972476 5.079179 -0.505498 0.619342 -0.371471 -0.691683 0.760970 0.189992
3.012885 4.922256 -0.38504 0.619342 -0.371471 -0.691683 0.745386 0.195295
2.555501 5.635345 0.136838 0.698811 0.326819 0.63628 0.743357 0.884422
2.446523 5.480379 0.336122 0.698811 0.326819 0.63628 0.749565 0.909305
2.833965 5.512537 -0.105913 0.698811 0.326819 0.63628 0.764743 0.866916
2.896582 5.137384 -0.575923 0.501823 -0.318633 -0.804143 0.766281 0.181856
2.807992 4.287847 -0.227792 0.935722 -0.237582 0.260729 0.783160 0.521777
2.522059 5.725832 -0.082768 0.072531 0.959493 -0.272237 0.660314 0.233950
2.99383 5.08654 -0.166955 0.791917 0.108309 0.600947 0.712108 0.561440
3 0 1 2 
3 3 4 5 
3 6 7 8 
3 9 10 11 
3 12 13 14 
3 15 16 17 
3 18 19 20 
3 18 21 22 
3 23 24 25 
3 26 27 28 
3 29 30 31 
3 32 33 34 
3 35 36 37 
3 12 38 39 
3 40 41 42 
3 0 43 44 
3 45 46 47 
3 48 49 50 
3 26 51 52 
3 53 54 55 
3 56 57 58 
3 59 60 61 
3 62 63 64 
3 65 66 67 
3 68 69 70 
3 71 72 73 
3 74 75 76 
3 77 78 79 
3 80 81 82 
3 83 84 85 
3 86 87 88 
3 89 90 91 
3 92 93 94 
3 95 96 97 
3 98 99 100 
3 101 102 103 
3 104 105 106 
3 107 108 109 
3 110 111 112 
3 113 114 115 
3 116 117 118 
3 119 120 121 
3 122 123 124 
3 125 126 127 
3 128 129 130 
3 131 132 133 
3 134 135 136 
3 137 138 139 
3 140 141 142 
3 143 144 145 
3 146 147 148 
3 149 150 151 
3 152 153 154 
3 155 156 157 
3 158 159 160 
3 161 162 163 
3 164 165 166 
3 167 168 169 
3 170 171 172 
3 173 174 175 
3 176 177 178 
3 179 180 181 
3 182 183 184 
3 185 186 187 
3 188 189 190 
3 191 192 193 
3 194 195 196 
3 197 198 199 
3 200 201 202 
3 203 204 205 
3 206 207 208 
3 209 210 211 
3 212 213 214 
3 215 216 217 
3 218 219 220 
3 221 222 223 
3 224 225 226 
3 227 228 229 
3 230 231 232 
3 233 234 235 
3 236 237 238 
3 239 240 241 
3 242 243 244 
3 245 246 247 
3 248 249 250 
3 251 252 253 
3 254 255 256 
3 257 258 259 
3 260 261 262 
3 263 264 265 
3 266 267 268 
3 269 270 271 
3 272 273 274 
3 275 276 277 
3 278 279 280 
3 281 282 283 
3 284 285 286 
3 287 288 289 
3 290 291 292 
3 293 294 295 
3 296 297 298 
3 299 300 301 
3 302 303 304 
3 305 306 307 
3 308 309 310 
3 311 312 313 
3 314 315 316 
3 317 318 319 
3 320 321 322 
3 323 324 325 
3 326 327 328 
3 329 330 331 
3 332 333 334 
3 335 336 337 
3 338 339 340 
3 341 342 343 
3 344 345 346 
3 347 348 349 
3 350 351 352 
3 353 354 355 
3 356 357 358 
3 359 360 361 
3 362 363 364 
3 365 366 367 
3 368 369 370 
3 371 372 373 
3 374 375 376 
3 377 378 379 
3 380 381 382 
3 383 384 385 
3 386 387 388 
3 389 390 391 
3 392 393 394 
3 395 396 397 
3 398 399 400 
3 401 402 403 
3 404 405 406 
3 407 408 409 
3 410 411 412 
3 413 414 415 
3 416 417 418 
3 0 44 1 
3 3 419 4 
3 6 420 7 
3 9 421 10 
3 12 39 13 
3 15 422 16 
3 18 22 19 
3 423 424 425 
3 426 427 428 
3 23 429 24 
3 26 52 27 
3 31 430 29 
3 29 431 30 
3 432 433 434 
3 435 436 437 
3 438 31 30 
3 439 440 441 
3 32 442 33 
3 443 444 445 
3 15 446 447 
3 448 36 35 
3 449 443 445 
3 12 450 38 
3 451 452 453 
3 454 40 42 
3 421 9 455 
3 0 456 43 
3 457 458 459 
3 460 461 462 
3 463 464 465 
3 466 467 468 
3 469 470 471 
3 472 473 474 
3 475 476 477 
3 478 479 480 
3 26 481 51 
3 482 483 484 
3 485 486 487 
3 488 489 490 
3 491 492 493 
3 494 495 496 
3 56 497 57 
3 59 498 60 
3 62 499 63 
3 65 500 66 
3 68 501 69 
3 71 502 72 
3 74 503 75 
3 77 504 78 
3 80 505 81 
3 83 506 84 
3 86 507 87 
3 89 508 90 
3 509 510 511 
3 95 512 96 
3 98 513 99 
3 101 514 102 
3 104 515 105 
3 107 516 108 
3 517 518 519 
3 519 520 110 
3 110 521 111 
3 111 522 112 
3 112 517 519 
3 519 110 112 
3 113 523 114 
3 116 524 117 
3 119 525 120 
3 526 527 528 
3 125 529 126 
3 128 530 129 
3 131 531 132 
3 134 532 135 
3 137 533 138 
3 140 534 141 
3 535 536 537 
3 538 539 540 
3 541 542 543 
3 149 544 150 
3 152 545 153 
3 155 546 156 
3 158 547 159 
3 161 548 162 
3 549 550 551 
3 167 552 168 
3 170 553 171 
3 173 554 174 
3 555 556 557 
3 179 558 180 
3 182 559 183 
3 185 560 186 
3 188 561 189 
3 191 562 192 
3 194 563 195 
3 564 565 566 
3 567 568 569 
3 570 571 572 
3 573 574 575 
3 576 577 578 
3 579 580 581 
3 206 582 207 
3 209 583 210 
3 212 584 213 
3 585 586 587 
3 588 589 590 
3 591 592 593 
3 224 594 225 
3 227 595 228 
3 230 596 231 
3 597 598 599 
3 600 601 602 
3 603 604 605 
3 236 606 237 
3 239 607 240 
3 242 608 243 
3 245 609 246 
3 248 610 249 
3 251 611 252 
3 254 612 255 
3 257 613 258 
3 260 614 261 
3 263 615 264 
3 266 616 267 
3 617 618 619 
3 620 621 622 
3 623 624 625 
3 278 626 279 
3 627 628 629 
3 284 630 285 
3 287 631 288 
3 290 632 291 
3 293 633 294 
3 634 635 636 
3 299 637 300 
3 302 638 303 
3 305 639 306 
3 640 641 642 
3 643 644 645 
3 646 647 648 
3 649 650 651 
3 652 653 654 
3 655 656 657 
3 658 659 660 
3 329 661 330 
3 332 662 333 
3 335 663 336 
3 664 665 666 
3 341 667 342 
3 344 668 345 
3 347 669 348 
3 670 671 672 
3 673 674 675 
3 356 676 357 
3 677 678 679 
3 680 681 682 
3 683 684 685 
3 368 686 369 
3 371 687 372 
3 374 688 375 
3 377 689 378 
3 380 690 381 
3 383 691 384 
3 386 692 387 
3 693 694 695 
3 696 697 698 
3 699 700 701 
3 702 703 704 
3 395 705 396 
3 706 707 708 
3 709 710 711 
3 712 713 714 
3 407 715 408 
3 410 716 411 
3 413 717 414 
3 416 718 417 
